<?xml version='1.0' encoding='UTF-8'?>
<!-- This file was generated by dvisvgm 2.6.3 -->
<svg version='1.1' xmlns='http://www.w3.org/2000/svg' xmlns:xlink='http://www.w3.org/1999/xlink' width='127.301459pt' height='16.560252pt' viewBox='17.292255 35.835599 63.650729 8.280126'>
<defs>
<path id='g0-0' d='M5.571108 -1.809215C5.69863 -1.809215 5.873973 -1.809215 5.873973 -1.992528S5.69863 -2.175841 5.571108 -2.175841H1.004234C0.876712 -2.175841 0.70137 -2.175841 0.70137 -1.992528S0.876712 -1.809215 1.004234 -1.809215H5.571108Z'/>
<path id='g1-100' d='M3.616438 -3.969116C3.622416 -3.993026 3.634371 -4.028892 3.634371 -4.05878C3.634371 -4.154421 3.514819 -4.148443 3.443088 -4.142466L2.773599 -4.088667C2.67198 -4.08269 2.594271 -4.076712 2.594271 -3.939228C2.594271 -3.843587 2.67198 -3.843587 2.761644 -3.843587C2.940971 -3.843587 2.982814 -3.831631 3.060523 -3.801743C3.054545 -3.71208 3.054545 -3.700125 3.036613 -3.622416C2.911083 -3.108344 2.815442 -2.707846 2.69589 -2.27746C2.612204 -2.414944 2.408966 -2.636115 2.038356 -2.636115C1.273225 -2.636115 0.448319 -1.835118 0.448319 -0.956413C0.448319 -0.310834 0.902615 0.059776 1.41071 0.059776C1.811208 0.059776 2.15193 -0.215193 2.30137 -0.364633C2.414944 0.011955 2.815442 0.059776 2.946949 0.059776C3.162142 0.059776 3.317559 -0.059776 3.431133 -0.245081C3.580573 -0.484184 3.664259 -0.830884 3.664259 -0.860772C3.664259 -0.872727 3.658281 -0.944458 3.550685 -0.944458C3.461021 -0.944458 3.449066 -0.902615 3.425156 -0.806974C3.329514 -0.442341 3.203985 -0.137484 2.970859 -0.137484C2.767621 -0.137484 2.749689 -0.352677 2.749689 -0.442341C2.749689 -0.52005 2.749689 -0.537983 2.779577 -0.645579L3.616438 -3.969116ZM2.32528 -0.783064C2.295392 -0.675467 2.295392 -0.663512 2.211706 -0.573848C1.882939 -0.203238 1.578082 -0.137484 1.428643 -0.137484C1.189539 -0.137484 0.956413 -0.298879 0.956413 -0.723288C0.956413 -0.968369 1.081943 -1.554172 1.273225 -1.894894C1.452553 -2.217684 1.75741 -2.438854 2.044334 -2.438854C2.492653 -2.438854 2.606227 -1.966625 2.606227 -1.924782L2.588294 -1.841096L2.32528 -0.783064Z'/>
<path id='g2-58' d='M2.199751 -0.573848C2.199751 -0.920548 1.912827 -1.159651 1.625903 -1.159651C1.279203 -1.159651 1.0401 -0.872727 1.0401 -0.585803C1.0401 -0.239103 1.327024 0 1.613948 0C1.960648 0 2.199751 -0.286924 2.199751 -0.573848Z'/>
<path id='g2-59' d='M2.331258 0.047821C2.331258 -0.645579 2.10411 -1.159651 1.613948 -1.159651C1.231382 -1.159651 1.0401 -0.848817 1.0401 -0.585803S1.219427 0 1.625903 0C1.78132 0 1.912827 -0.047821 2.020423 -0.155417C2.044334 -0.179328 2.056289 -0.179328 2.068244 -0.179328C2.092154 -0.179328 2.092154 -0.011955 2.092154 0.047821C2.092154 0.442341 2.020423 1.219427 1.327024 1.996513C1.195517 2.139975 1.195517 2.163885 1.195517 2.187796C1.195517 2.247572 1.255293 2.307347 1.315068 2.307347C1.41071 2.307347 2.331258 1.422665 2.331258 0.047821Z'/>
<path id='g2-120' d='M5.66675 -4.877709C5.284184 -4.805978 5.140722 -4.519054 5.140722 -4.291905C5.140722 -4.004981 5.36787 -3.90934 5.535243 -3.90934C5.893898 -3.90934 6.144956 -4.220174 6.144956 -4.542964C6.144956 -5.045081 5.571108 -5.272229 5.068991 -5.272229C4.339726 -5.272229 3.93325 -4.554919 3.825654 -4.327771C3.550685 -5.224408 2.809465 -5.272229 2.594271 -5.272229C1.374844 -5.272229 0.729265 -3.706102 0.729265 -3.443088C0.729265 -3.395268 0.777086 -3.335492 0.860772 -3.335492C0.956413 -3.335492 0.980324 -3.407223 1.004234 -3.455044C1.41071 -4.782067 2.211706 -5.033126 2.558406 -5.033126C3.096389 -5.033126 3.203985 -4.531009 3.203985 -4.244085C3.203985 -3.981071 3.132254 -3.706102 2.988792 -3.132254L2.582316 -1.494396C2.402989 -0.777086 2.056289 -0.119552 1.422665 -0.119552C1.362889 -0.119552 1.06401 -0.119552 0.812951 -0.274969C1.243337 -0.358655 1.338979 -0.71731 1.338979 -0.860772C1.338979 -1.099875 1.159651 -1.243337 0.932503 -1.243337C0.645579 -1.243337 0.334745 -0.992279 0.334745 -0.609714C0.334745 -0.107597 0.896638 0.119552 1.41071 0.119552C1.984558 0.119552 2.391034 -0.334745 2.642092 -0.824907C2.833375 -0.119552 3.431133 0.119552 3.873474 0.119552C5.092902 0.119552 5.738481 -1.446575 5.738481 -1.709589C5.738481 -1.769365 5.69066 -1.817186 5.618929 -1.817186C5.511333 -1.817186 5.499377 -1.75741 5.463512 -1.661768C5.140722 -0.609714 4.447323 -0.119552 3.90934 -0.119552C3.490909 -0.119552 3.263761 -0.430386 3.263761 -0.920548C3.263761 -1.183562 3.311582 -1.374844 3.502864 -2.163885L3.921295 -3.789788C4.100623 -4.507098 4.507098 -5.033126 5.057036 -5.033126C5.080946 -5.033126 5.415691 -5.033126 5.66675 -4.877709Z'/>
<path id='g3-48' d='M3.897385 -2.542466C3.897385 -3.395268 3.809714 -3.913325 3.5467 -4.423412C3.196015 -5.124782 2.550436 -5.300125 2.11208 -5.300125C1.107846 -5.300125 0.74122 -4.550934 0.629639 -4.327771C0.342715 -3.745953 0.326775 -2.956912 0.326775 -2.542466C0.326775 -2.016438 0.350685 -1.211457 0.73325 -0.573848C1.099875 0.01594 1.689664 0.167372 2.11208 0.167372C2.494645 0.167372 3.180075 0.047821 3.57858 -0.74122C3.873474 -1.315068 3.897385 -2.024408 3.897385 -2.542466ZM2.11208 -0.055791C1.841096 -0.055791 1.291158 -0.183313 1.123786 -1.020174C1.036115 -1.474471 1.036115 -2.223661 1.036115 -2.638107C1.036115 -3.188045 1.036115 -3.745953 1.123786 -4.184309C1.291158 -4.99726 1.912827 -5.076961 2.11208 -5.076961C2.383064 -5.076961 2.933001 -4.941469 3.092403 -4.216189C3.188045 -3.777833 3.188045 -3.180075 3.188045 -2.638107C3.188045 -2.16787 3.188045 -1.45056 3.092403 -1.004234C2.925031 -0.167372 2.375093 -0.055791 2.11208 -0.055791Z'/>
<path id='g3-49' d='M2.502615 -5.076961C2.502615 -5.292154 2.486675 -5.300125 2.271482 -5.300125C1.944707 -4.98132 1.522291 -4.790037 0.765131 -4.790037V-4.527024C0.980324 -4.527024 1.41071 -4.527024 1.872976 -4.742217V-0.653549C1.872976 -0.358655 1.849066 -0.263014 1.091905 -0.263014H0.812951V0C1.139726 -0.02391 1.825156 -0.02391 2.183811 -0.02391S3.235866 -0.02391 3.56264 0V-0.263014H3.283686C2.526526 -0.263014 2.502615 -0.358655 2.502615 -0.653549V-5.076961Z'/>
<path id='g3-50' d='M2.247572 -1.625903C2.375093 -1.745455 2.709838 -2.008468 2.83736 -2.12005C3.331507 -2.574346 3.801743 -3.012702 3.801743 -3.737983C3.801743 -4.686426 3.004732 -5.300125 2.008468 -5.300125C1.052055 -5.300125 0.422416 -4.574844 0.422416 -3.865504C0.422416 -3.474969 0.73325 -3.419178 0.844832 -3.419178C1.012204 -3.419178 1.259278 -3.53873 1.259278 -3.841594C1.259278 -4.25604 0.860772 -4.25604 0.765131 -4.25604C0.996264 -4.837858 1.530262 -5.037111 1.920797 -5.037111C2.662017 -5.037111 3.044583 -4.407472 3.044583 -3.737983C3.044583 -2.909091 2.462765 -2.303362 1.522291 -1.338979L0.518057 -0.302864C0.422416 -0.215193 0.422416 -0.199253 0.422416 0H3.57061L3.801743 -1.42665H3.55467C3.53076 -1.267248 3.466999 -0.868742 3.371357 -0.71731C3.323537 -0.653549 2.717808 -0.653549 2.590286 -0.653549H1.171606L2.247572 -1.625903Z'/>
</defs>
<g id='page1'>
<use x='17.292255' y='40.982972' xlink:href='#g2-120'/>
<use x='23.944343' y='42.776235' xlink:href='#g3-48'/>
<use x='28.676657' y='40.982972' xlink:href='#g2-59'/>
<use x='33.920816' y='40.982972' xlink:href='#g2-58'/>
<use x='39.164975' y='40.982972' xlink:href='#g2-58'/>
<use x='44.409134' y='40.982972' xlink:href='#g2-58'/>
<use x='49.653293' y='40.982972' xlink:href='#g2-59'/>
<use x='54.897452' y='40.982972' xlink:href='#g2-120'/>
<use x='61.549539' y='43.285464' xlink:href='#g3-50'/>
<use x='65.783722' y='41.016203' xlink:href='#g1-100'/>
<use x='70.122295' y='43.285464' xlink:href='#g0-0'/>
<use x='76.708802' y='43.285464' xlink:href='#g3-49'/>
</g>
</svg>