<?xml version='1.0' encoding='UTF-8'?>
<!-- This file was generated by dvisvgm 2.6.3 -->
<svg version='1.1' xmlns='http://www.w3.org/2000/svg' xmlns:xlink='http://www.w3.org/1999/xlink' width='165.206153pt' height='21.758273pt' viewBox='17.292255 32.428442 82.603076 10.879137'>
<defs>
<path id='g0-94' d='M4.25604 -6.898132C4.160399 -7.10137 4.088667 -7.149191 3.981071 -7.149191C3.825654 -7.149191 3.789788 -7.065504 3.718057 -6.898132L0.74122 -0.215193C0.669489 -0.059776 0.657534 -0.035866 0.657534 0.02391C0.657534 0.155417 0.765131 0.263014 0.896638 0.263014C0.980324 0.263014 1.075965 0.239103 1.171606 0.011955L3.981071 -6.324284L6.790535 0.011955C6.898132 0.263014 7.017684 0.263014 7.065504 0.263014C7.197011 0.263014 7.304608 0.155417 7.304608 0.02391C7.304608 0 7.304608 -0.02391 7.232877 -0.167372L4.25604 -6.898132Z'/>
<path id='g2-49' d='M2.502615 -5.076961C2.502615 -5.292154 2.486675 -5.300125 2.271482 -5.300125C1.944707 -4.98132 1.522291 -4.790037 0.765131 -4.790037V-4.527024C0.980324 -4.527024 1.41071 -4.527024 1.872976 -4.742217V-0.653549C1.872976 -0.358655 1.849066 -0.263014 1.091905 -0.263014H0.812951V0C1.139726 -0.02391 1.825156 -0.02391 2.183811 -0.02391S3.235866 -0.02391 3.56264 0V-0.263014H3.283686C2.526526 -0.263014 2.502615 -0.358655 2.502615 -0.653549V-5.076961Z'/>
<path id='g2-50' d='M2.247572 -1.625903C2.375093 -1.745455 2.709838 -2.008468 2.83736 -2.12005C3.331507 -2.574346 3.801743 -3.012702 3.801743 -3.737983C3.801743 -4.686426 3.004732 -5.300125 2.008468 -5.300125C1.052055 -5.300125 0.422416 -4.574844 0.422416 -3.865504C0.422416 -3.474969 0.73325 -3.419178 0.844832 -3.419178C1.012204 -3.419178 1.259278 -3.53873 1.259278 -3.841594C1.259278 -4.25604 0.860772 -4.25604 0.765131 -4.25604C0.996264 -4.837858 1.530262 -5.037111 1.920797 -5.037111C2.662017 -5.037111 3.044583 -4.407472 3.044583 -3.737983C3.044583 -2.909091 2.462765 -2.303362 1.522291 -1.338979L0.518057 -0.302864C0.422416 -0.215193 0.422416 -0.199253 0.422416 0H3.57061L3.801743 -1.42665H3.55467C3.53076 -1.267248 3.466999 -0.868742 3.371357 -0.71731C3.323537 -0.653549 2.717808 -0.653549 2.590286 -0.653549H1.171606L2.247572 -1.625903Z'/>
<path id='g2-51' d='M2.016438 -2.662017C2.646077 -2.662017 3.044583 -2.199751 3.044583 -1.362889C3.044583 -0.366625 2.478705 -0.071731 2.056289 -0.071731C1.617933 -0.071731 1.020174 -0.231133 0.74122 -0.653549C1.028144 -0.653549 1.227397 -0.836862 1.227397 -1.099875C1.227397 -1.354919 1.044085 -1.538232 0.789041 -1.538232C0.573848 -1.538232 0.350685 -1.40274 0.350685 -1.083935C0.350685 -0.326775 1.163636 0.167372 2.072229 0.167372C3.132254 0.167372 3.873474 -0.565878 3.873474 -1.362889C3.873474 -2.024408 3.347447 -2.630137 2.534496 -2.805479C3.164134 -3.028643 3.634371 -3.57061 3.634371 -4.208219S2.917061 -5.300125 2.088169 -5.300125C1.235367 -5.300125 0.589788 -4.837858 0.589788 -4.23213C0.589788 -3.937235 0.789041 -3.809714 0.996264 -3.809714C1.243337 -3.809714 1.40274 -3.985056 1.40274 -4.216189C1.40274 -4.511083 1.147696 -4.622665 0.972354 -4.630635C1.307098 -5.068991 1.920797 -5.092902 2.064259 -5.092902C2.271482 -5.092902 2.87721 -5.029141 2.87721 -4.208219C2.87721 -3.650311 2.646077 -3.315567 2.534496 -3.188045C2.295392 -2.940971 2.11208 -2.925031 1.625903 -2.893151C1.474471 -2.885181 1.41071 -2.87721 1.41071 -2.773599C1.41071 -2.662017 1.482441 -2.662017 1.617933 -2.662017H2.016438Z'/>
<path id='g1-120' d='M5.66675 -4.877709C5.284184 -4.805978 5.140722 -4.519054 5.140722 -4.291905C5.140722 -4.004981 5.36787 -3.90934 5.535243 -3.90934C5.893898 -3.90934 6.144956 -4.220174 6.144956 -4.542964C6.144956 -5.045081 5.571108 -5.272229 5.068991 -5.272229C4.339726 -5.272229 3.93325 -4.554919 3.825654 -4.327771C3.550685 -5.224408 2.809465 -5.272229 2.594271 -5.272229C1.374844 -5.272229 0.729265 -3.706102 0.729265 -3.443088C0.729265 -3.395268 0.777086 -3.335492 0.860772 -3.335492C0.956413 -3.335492 0.980324 -3.407223 1.004234 -3.455044C1.41071 -4.782067 2.211706 -5.033126 2.558406 -5.033126C3.096389 -5.033126 3.203985 -4.531009 3.203985 -4.244085C3.203985 -3.981071 3.132254 -3.706102 2.988792 -3.132254L2.582316 -1.494396C2.402989 -0.777086 2.056289 -0.119552 1.422665 -0.119552C1.362889 -0.119552 1.06401 -0.119552 0.812951 -0.274969C1.243337 -0.358655 1.338979 -0.71731 1.338979 -0.860772C1.338979 -1.099875 1.159651 -1.243337 0.932503 -1.243337C0.645579 -1.243337 0.334745 -0.992279 0.334745 -0.609714C0.334745 -0.107597 0.896638 0.119552 1.41071 0.119552C1.984558 0.119552 2.391034 -0.334745 2.642092 -0.824907C2.833375 -0.119552 3.431133 0.119552 3.873474 0.119552C5.092902 0.119552 5.738481 -1.446575 5.738481 -1.709589C5.738481 -1.769365 5.69066 -1.817186 5.618929 -1.817186C5.511333 -1.817186 5.499377 -1.75741 5.463512 -1.661768C5.140722 -0.609714 4.447323 -0.119552 3.90934 -0.119552C3.490909 -0.119552 3.263761 -0.430386 3.263761 -0.920548C3.263761 -1.183562 3.311582 -1.374844 3.502864 -2.163885L3.921295 -3.789788C4.100623 -4.507098 4.507098 -5.033126 5.057036 -5.033126C5.080946 -5.033126 5.415691 -5.033126 5.66675 -4.877709Z'/>
<path id='g1-121' d='M3.144209 1.338979C2.82142 1.793275 2.355168 2.199751 1.769365 2.199751C1.625903 2.199751 1.052055 2.175841 0.872727 1.625903C0.908593 1.637858 0.968369 1.637858 0.992279 1.637858C1.350934 1.637858 1.590037 1.327024 1.590037 1.052055S1.362889 0.681445 1.183562 0.681445C0.992279 0.681445 0.573848 0.824907 0.573848 1.41071C0.573848 2.020423 1.08792 2.438854 1.769365 2.438854C2.964882 2.438854 4.172354 1.338979 4.507098 0.011955L5.678705 -4.65056C5.69066 -4.710336 5.71457 -4.782067 5.71457 -4.853798C5.71457 -5.033126 5.571108 -5.152677 5.391781 -5.152677C5.284184 -5.152677 5.033126 -5.104857 4.937484 -4.746202L4.052802 -1.231382C3.993026 -1.016189 3.993026 -0.992279 3.897385 -0.860772C3.658281 -0.526027 3.263761 -0.119552 2.689913 -0.119552C2.020423 -0.119552 1.960648 -0.777086 1.960648 -1.099875C1.960648 -1.78132 2.283437 -2.701868 2.606227 -3.56264C2.737733 -3.90934 2.809465 -4.076712 2.809465 -4.315816C2.809465 -4.817933 2.450809 -5.272229 1.865006 -5.272229C0.765131 -5.272229 0.32279 -3.53873 0.32279 -3.443088C0.32279 -3.395268 0.37061 -3.335492 0.454296 -3.335492C0.561893 -3.335492 0.573848 -3.383313 0.621669 -3.550685C0.908593 -4.554919 1.362889 -5.033126 1.829141 -5.033126C1.936737 -5.033126 2.139975 -5.033126 2.139975 -4.638605C2.139975 -4.327771 2.008468 -3.981071 1.829141 -3.526775C1.243337 -1.960648 1.243337 -1.566127 1.243337 -1.279203C1.243337 -0.143462 2.056289 0.119552 2.654047 0.119552C3.000747 0.119552 3.431133 0.011955 3.849564 -0.430386L3.861519 -0.418431C3.682192 0.286924 3.56264 0.753176 3.144209 1.338979Z'/>
<path id='g3-61' d='M8.069738 -3.873474C8.237111 -3.873474 8.452304 -3.873474 8.452304 -4.088667C8.452304 -4.315816 8.249066 -4.315816 8.069738 -4.315816H1.028144C0.860772 -4.315816 0.645579 -4.315816 0.645579 -4.100623C0.645579 -3.873474 0.848817 -3.873474 1.028144 -3.873474H8.069738ZM8.069738 -1.649813C8.237111 -1.649813 8.452304 -1.649813 8.452304 -1.865006C8.452304 -2.092154 8.249066 -2.092154 8.069738 -2.092154H1.028144C0.860772 -2.092154 0.645579 -2.092154 0.645579 -1.876961C0.645579 -1.649813 0.848817 -1.649813 1.028144 -1.649813H8.069738Z'/>
</defs>
<g id='page1'>
<use x='17.292255' y='40.982972' xlink:href='#g1-121'/>
<use x='26.749737' y='40.982972' xlink:href='#g3-61'/>
<rect x='39.175217' y='32.428442' height='0.478187' width='60.720115'/>
<use x='39.175217' y='40.982972' xlink:href='#g1-120'/>
<use x='45.827305' y='42.776235' xlink:href='#g2-49'/>
<use x='53.216283' y='40.982972' xlink:href='#g0-94'/>
<use x='63.843085' y='40.982972' xlink:href='#g1-120'/>
<use x='70.495172' y='42.776235' xlink:href='#g2-50'/>
<use x='77.884151' y='40.982972' xlink:href='#g0-94'/>
<use x='88.510953' y='40.982972' xlink:href='#g1-120'/>
<use x='95.16304' y='42.776235' xlink:href='#g2-51'/>
</g>
</svg>