<?xml version='1.0' encoding='UTF-8'?>
<!-- This file was generated by dvisvgm 2.6.3 -->
<svg version='1.1' xmlns='http://www.w3.org/2000/svg' xmlns:xlink='http://www.w3.org/1999/xlink' width='707.2497pt' height='81.687811pt' viewBox='17.292255 32.018785 353.62485 40.843906'>
<defs>
<path id='g0-115' d='M2.725778 -2.391034C2.929016 -2.355168 3.251806 -2.283437 3.323537 -2.271482C3.478954 -2.223661 4.016936 -2.032379 4.016936 -1.458531C4.016936 -1.08792 3.682192 -0.119552 2.295392 -0.119552C2.044334 -0.119552 1.147696 -0.155417 0.908593 -0.812951C1.3868 -0.753176 1.625903 -1.123786 1.625903 -1.3868C1.625903 -1.637858 1.458531 -1.769365 1.219427 -1.769365C0.956413 -1.769365 0.609714 -1.566127 0.609714 -1.028144C0.609714 -0.32279 1.327024 0.119552 2.283437 0.119552C4.100623 0.119552 4.638605 -1.219427 4.638605 -1.841096C4.638605 -2.020423 4.638605 -2.355168 4.25604 -2.737733C3.957161 -3.024658 3.670237 -3.084433 3.024658 -3.21594C2.701868 -3.287671 2.187796 -3.395268 2.187796 -3.93325C2.187796 -4.172354 2.402989 -5.033126 3.53873 -5.033126C4.040847 -5.033126 4.531009 -4.841843 4.65056 -4.411457C4.124533 -4.411457 4.100623 -3.957161 4.100623 -3.945205C4.100623 -3.694147 4.327771 -3.622416 4.435367 -3.622416C4.60274 -3.622416 4.937484 -3.753923 4.937484 -4.25604S4.483188 -5.272229 3.550685 -5.272229C1.984558 -5.272229 1.566127 -4.040847 1.566127 -3.550685C1.566127 -2.642092 2.450809 -2.450809 2.725778 -2.391034Z'/>
<path id='g1-40' d='M3.718057 -8.966376C3.299626 -8.810959 2.510585 -7.770859 2.139975 -7.10137C1.458531 -5.846077 1.183562 -4.411457 1.183562 -2.988792C1.183562 -0.789041 1.853051 1.41071 3.58655 2.893151C3.646326 2.929016 3.718057 2.988792 3.789788 2.988792C3.849564 2.988792 3.88543 2.929016 3.88543 2.893151C3.88543 2.761644 3.550685 2.49863 3.431133 2.343213C2.235616 0.920548 1.829141 -1.0401 1.829141 -2.893151C1.829141 -4.889664 2.211706 -7.149191 3.706102 -8.643587C3.777833 -8.715318 3.88543 -8.799004 3.88543 -8.88269C3.88543 -8.942466 3.825654 -8.978331 3.765878 -8.978331C3.741968 -8.978331 3.730012 -8.978331 3.718057 -8.966376Z'/>
<path id='g1-41' d='M0.705355 -8.966376C0.669489 -8.954421 0.657534 -8.930511 0.657534 -8.894645C0.657534 -8.739228 0.968369 -8.51208 1.099875 -8.356663C2.331258 -6.862267 2.713823 -4.841843 2.713823 -2.917061C2.713823 -1.111831 2.331258 0.836862 1.171606 2.283437L0.884682 2.606227C0.800996 2.689913 0.657534 2.785554 0.657534 2.893151C0.657534 2.940971 0.705355 2.976837 0.765131 2.976837H0.800996C0.944458 2.952927 1.159651 2.713823 1.315068 2.558406C2.773599 1.099875 3.359402 -0.956413 3.359402 -2.976837C3.359402 -5.176588 2.689913 -7.400249 0.944458 -8.88269C0.896638 -8.930511 0.836862 -8.978331 0.765131 -8.978331C0.74122 -8.978331 0.729265 -8.978331 0.705355 -8.966376Z'/>
<path id='g1-45' d='M0.131507 -2.905106V-2.259527H3.239851V-2.905106H0.131507Z'/>
<path id='g1-46' d='M1.530262 -1.159651C1.279203 -1.111831 1.0401 -0.896638 1.0401 -0.597758C1.0401 -0.286924 1.303113 -0.011955 1.613948 -0.011955S2.199751 -0.251059 2.199751 -0.585803C2.199751 -0.896638 1.936737 -1.171606 1.625903 -1.171606C1.590037 -1.171606 1.566127 -1.159651 1.530262 -1.159651Z'/>
<path id='g1-48' d='M2.761644 -7.962142C0.490162 -7.746949 0.478207 -4.913574 0.478207 -3.765878C0.478207 -2.12802 0.812951 0.239103 2.917061 0.239103H3.060523C5.332005 0.02391 5.355915 -2.749689 5.355915 -3.921295C5.355915 -5.547198 5.009215 -7.974097 2.929016 -7.974097C2.86924 -7.974097 2.82142 -7.962142 2.761644 -7.962142ZM1.398755 -3.120299C1.3868 -3.21594 1.3868 -3.323537 1.3868 -3.419178C1.3868 -4.160399 1.3868 -4.925529 1.446575 -5.66675C1.482441 -6.144956 1.542217 -6.670984 1.817186 -7.07746C2.068244 -7.460025 2.486675 -7.723039 2.929016 -7.723039C4.554919 -7.723039 4.447323 -5.248319 4.447323 -4.124533V-3.239851C4.447323 -2.355168 4.399502 -1.41071 4.076712 -0.789041C3.861519 -0.358655 3.419178 0 2.917061 0H2.84533C1.41071 -0.119552 1.506351 -2.032379 1.398755 -3.120299Z'/>
<path id='g1-49' d='M1.08792 -7.197011V-6.850311C1.625903 -6.850311 2.080199 -6.933998 2.606227 -7.161146V-0.884682C2.606227 -0.418431 2.139975 -0.3467 1.673724 -0.3467C1.482441 -0.3467 1.303113 -0.358655 1.147696 -0.358655V-0.011955H4.889664V-0.358655C4.746202 -0.358655 4.554919 -0.3467 4.375592 -0.3467C3.777833 -0.3467 3.431133 -0.406476 3.431133 -0.920548V-7.782814C3.431133 -7.854545 3.407223 -7.962142 3.287671 -7.962142C3.120299 -7.962142 2.976837 -7.734994 2.82142 -7.651308C2.307347 -7.304608 1.697634 -7.197011 1.08792 -7.197011Z'/>
<path id='g1-50' d='M0.980324 -6.252553C1.219427 -6.993773 1.80523 -7.615442 2.630137 -7.615442C3.694147 -7.615442 4.25604 -6.611208 4.25604 -5.66675C4.25604 -4.447323 3.383313 -3.466999 2.630137 -2.606227L1.769365 -1.637858C1.518306 -1.362889 1.267248 -1.075965 1.016189 -0.789041L0.74122 -0.478207C0.669489 -0.382565 0.573848 -0.334745 0.573848 -0.179328C0.573848 -0.119552 0.585803 -0.059776 0.585803 -0.011955H4.937484L5.248319 -2.020423H4.985305C4.889664 -1.458531 4.925529 -0.884682 4.411457 -0.884682C4.076712 -0.884682 3.730012 -0.860772 3.395268 -0.860772H1.41071C2.032379 -1.482441 2.630137 -2.092154 3.275716 -2.677958C4.112578 -3.431133 5.248319 -4.339726 5.248319 -5.595019C5.248319 -7.10137 4.088667 -7.962142 2.797509 -7.962142C1.625903 -7.962142 0.573848 -7.005729 0.573848 -5.798257C0.573848 -5.463512 0.6934 -5.212453 1.123786 -5.140722C1.518306 -5.140722 1.721544 -5.415691 1.721544 -5.71457C1.721544 -5.989539 1.554172 -6.216687 1.219427 -6.276463C1.135741 -6.276463 1.06401 -6.276463 0.980324 -6.252553Z'/>
<path id='g1-51' d='M1.219427 -6.874222C1.518306 -7.388294 2.187796 -7.675218 2.797509 -7.675218C3.502864 -7.675218 4.016936 -7.220922 4.016936 -6.288418C4.016936 -5.571108 3.718057 -4.62665 2.964882 -4.399502C2.737733 -4.315816 2.462765 -4.375592 2.247572 -4.303861H2.199751C2.092154 -4.303861 1.948692 -4.303861 1.948692 -4.184309C1.948692 -4.076712 2.032379 -4.052802 2.139975 -4.052802H2.271482C2.414944 -4.052802 2.570361 -4.064757 2.713823 -4.064757C3.837609 -4.064757 4.23213 -3.060523 4.23213 -2.175841C4.23213 -1.41071 4.052802 -0.083686 2.857285 -0.083686C2.092154 -0.083686 1.374844 -0.418431 0.944458 -1.135741H1.052055C1.422665 -1.135741 1.685679 -1.362889 1.685679 -1.733499C1.685679 -2.092154 1.41071 -2.319303 1.052055 -2.319303H1.004234C0.6934 -2.283437 0.490162 -2.020423 0.490162 -1.721544C0.490162 -0.478207 1.721544 0.239103 2.857285 0.239103C4.148443 0.239103 5.34396 -0.71731 5.34396 -2.068244C5.34396 -3.120299 4.399502 -4.124533 3.311582 -4.208219C4.327771 -4.60274 5.021171 -5.296139 5.021171 -6.336239C5.021171 -7.44807 3.765878 -7.962142 2.857285 -7.962142C1.960648 -7.962142 0.812951 -7.460025 0.812951 -6.38406C0.812951 -6.121046 0.944458 -5.846077 1.279203 -5.786301H1.362889C1.673724 -5.786301 1.912827 -6.025405 1.912827 -6.336239C1.912827 -6.635118 1.697634 -6.886177 1.350934 -6.886177C1.303113 -6.886177 1.267248 -6.886177 1.219427 -6.874222Z'/>
<path id='g1-55' d='M1.016189 -8.093649L0.645579 -5.702615H0.908593C0.968369 -6.06127 1.028144 -6.647073 1.207472 -6.77858C1.279203 -6.838356 1.458531 -6.850311 1.637858 -6.850311H2.116065C2.283437 -6.862267 2.462765 -6.862267 2.630137 -6.862267H4.889664C4.638605 -6.527522 4.411457 -6.180822 4.172354 -5.834122C3.897385 -5.439601 3.610461 -5.045081 3.359402 -4.62665C2.582316 -3.335492 2.092154 -1.853051 2.092154 -0.334745V-0.203238C2.12802 0.047821 2.343213 0.239103 2.594271 0.239103H2.618182C3.024658 0.239103 3.096389 -0.119552 3.096389 -0.394521V-0.944458C3.096389 -2.259527 3.19203 -3.753923 3.90934 -4.901619C4.076712 -5.176588 4.267995 -5.427646 4.459278 -5.69066L5.487422 -7.185056C5.583064 -7.316563 5.66675 -7.388294 5.66675 -7.567621V-7.711083H3.981071C3.670237 -7.711083 3.180075 -7.675218 2.701868 -7.675218C1.984558 -7.675218 1.303113 -7.746949 1.279203 -8.093649H1.016189Z'/>
<path id='g1-56' d='M2.235616 -4.040847V-4.028892C1.3868 -3.646326 0.549938 -2.940971 0.490162 -1.936737V-1.817186C0.490162 -0.549938 1.673724 0.203238 2.785554 0.239103H2.893151C4.100623 0.239103 5.34396 -0.597758 5.34396 -1.996513C5.34396 -2.582316 5.080946 -3.156164 4.662516 -3.56264C4.483188 -3.730012 4.27995 -3.849564 4.076712 -3.993026C3.90934 -4.100623 3.741968 -4.23213 3.56264 -4.315816V-4.339726C4.244085 -4.614695 4.94944 -5.284184 5.021171 -6.06127V-6.168867C5.021171 -7.089415 4.220174 -7.962142 2.952927 -7.962142C1.936737 -7.962142 0.812951 -7.244832 0.812951 -6.03736C0.812951 -5.140722 1.291158 -4.60274 2.235616 -4.040847ZM1.0401 -1.697634C1.0401 -1.745455 1.028144 -1.80523 1.028144 -1.853051C1.028144 -2.689913 1.649813 -3.347447 2.307347 -3.765878C2.355168 -3.789788 2.426899 -3.837609 2.486675 -3.837609C2.630137 -3.837609 2.976837 -3.550685 3.19203 -3.407223C3.777833 -3.000747 4.794022 -2.546451 4.794022 -1.697634C4.794022 -0.669489 3.849564 -0.083686 2.940971 -0.083686S1.159651 -0.669489 1.0401 -1.697634ZM1.303113 -6.324284C1.303113 -7.197011 2.10411 -7.663263 2.893151 -7.663263C3.658281 -7.663263 4.542964 -7.149191 4.542964 -6.180822C4.542964 -5.499377 3.993026 -4.937484 3.478954 -4.590785C3.431133 -4.566874 3.383313 -4.519054 3.323537 -4.519054H3.311582C3.19203 -4.519054 2.905106 -4.758157 2.725778 -4.877709L2.12802 -5.272229C1.733499 -5.523288 1.362889 -5.834122 1.303113 -6.324284Z'/>
<path id='g1-61' d='M0.71731 -1.984558C0.681445 -1.960648 0.657534 -1.924782 0.657534 -1.888917C0.657534 -1.80523 0.753176 -1.75741 0.824907 -1.75741H8.249066C8.344707 -1.75741 8.428394 -1.793275 8.428394 -1.888917C8.428394 -1.972603 8.344707 -2.008468 8.237111 -2.008468C8.177335 -2.008468 8.117559 -1.996513 8.069738 -1.996513H0.800996C0.765131 -1.996513 0.74122 -1.996513 0.71731 -1.984558ZM0.753176 -4.220174C0.6934 -4.208219 0.657534 -4.148443 0.657534 -4.100623S0.6934 -4.004981 0.765131 -3.993026H8.249066C8.320797 -3.993026 8.428394 -4.004981 8.428394 -4.100623C8.428394 -4.208219 8.308842 -4.23213 8.225156 -4.23213H0.860772C0.824907 -4.23213 0.789041 -4.23213 0.753176 -4.220174Z'/>
<path id='g1-66' d='M0.514072 -8.177335V-7.830635H0.908593C1.303113 -7.830635 1.661768 -7.782814 1.661768 -7.340473C1.661768 -7.256787 1.649813 -7.185056 1.649813 -7.113325V-0.884682C1.649813 -0.406476 1.279203 -0.358655 0.884682 -0.358655H0.514072V-0.011955H4.124533C4.351681 -0.011955 4.590785 0 4.829888 0C5.869988 0 7.220922 -0.406476 7.555666 -1.697634C7.603487 -1.841096 7.627397 -2.008468 7.627397 -2.163885C7.627397 -3.371357 6.40797 -4.267995 5.332005 -4.267995C5.511333 -4.339726 5.702615 -4.363636 5.881943 -4.435367C6.635118 -4.698381 7.304608 -5.34396 7.304608 -6.168867C7.304608 -7.017684 6.587298 -7.699128 5.834122 -7.986052C5.379826 -8.153425 4.889664 -8.18929 4.411457 -8.18929C4.184309 -8.18929 3.957161 -8.177335 3.730012 -8.177335H0.514072ZM2.558406 -4.136488H4.184309C4.351681 -4.136488 4.531009 -4.148443 4.698381 -4.148443C5.858032 -4.148443 6.539477 -3.21594 6.539477 -2.235616C6.539477 -1.075965 5.630884 -0.3467 4.447323 -0.3467C4.267995 -0.3467 4.100623 -0.358655 3.93325 -0.358655H3.012702C2.689913 -0.358655 2.558406 -0.478207 2.558406 -0.800996V-4.136488ZM2.558406 -4.375592V-7.400249C2.558406 -7.711083 2.689913 -7.830635 3.000747 -7.830635H4.483188C5.212453 -7.830635 5.774346 -7.579577 6.109091 -6.850311C6.192777 -6.635118 6.252553 -6.396015 6.252553 -6.156912C6.252553 -5.021171 5.248319 -4.375592 4.184309 -4.375592H2.558406Z'/>
<path id='g1-68' d='M0.502117 -8.177335V-7.830635H0.884682C1.279203 -7.830635 1.649813 -7.782814 1.649813 -7.328518C1.649813 -7.244832 1.637858 -7.173101 1.637858 -7.10137V-0.884682C1.637858 -0.418431 1.279203 -0.3467 0.920548 -0.3467C0.777086 -0.3467 0.633624 -0.358655 0.502117 -0.358655V-0.011955H3.753923C3.993026 -0.011955 4.23213 0 4.483188 0C5.36787 0 6.168867 -0.227148 6.922042 -0.872727C7.830635 -1.673724 8.284932 -2.857285 8.284932 -4.052802C8.284932 -6.109091 6.945953 -8.18929 4.435367 -8.18929C4.184309 -8.18929 3.93325 -8.177335 3.694147 -8.177335H0.502117ZM7.185056 -3.574595C7.089415 -2.187796 6.670984 -0.932503 5.152677 -0.454296C4.794022 -0.358655 4.435367 -0.358655 4.064757 -0.358655H3.048568C2.809465 -0.358655 2.570361 -0.382565 2.570361 -0.765131C2.570361 -0.860772 2.582316 -0.944458 2.582316 -1.028144V-6.957908C2.582316 -7.065504 2.570361 -7.185056 2.570361 -7.304608C2.570361 -7.615442 2.570361 -7.830635 3.132254 -7.830635H4.160399C4.99726 -7.830635 5.834122 -7.651308 6.503611 -6.77858C7.113325 -5.965629 7.197011 -4.925529 7.197011 -3.957161C7.197011 -3.825654 7.197011 -3.706102 7.185056 -3.574595Z'/>
<path id='g1-69' d='M0.478207 -8.153425V-7.806725H0.848817C1.255293 -7.806725 1.625903 -7.758904 1.625903 -7.328518C1.625903 -7.256787 1.613948 -7.173101 1.613948 -7.10137V-0.884682C1.613948 -0.406476 1.243337 -0.358655 0.848817 -0.358655H0.478207V-0.011955H7.149191L7.627397 -3.072478H7.364384C7.232877 -2.343213 7.161146 -1.470486 6.647073 -0.932503C6.121046 -0.382565 5.284184 -0.358655 4.566874 -0.358655H3.084433C2.797509 -0.358655 2.582316 -0.394521 2.582316 -0.800996V-4.064757H3.706102C4.112578 -4.064757 4.554919 -4.040847 4.782067 -3.706102C4.94944 -3.443088 4.961395 -3.096389 4.961395 -2.785554V-2.666002H5.224408V-5.810212H4.961395V-5.69066C4.961395 -5.080946 4.865753 -4.542964 4.100623 -4.435367C3.873474 -4.411457 3.658281 -4.411457 3.431133 -4.411457H2.582316V-7.400249C2.582316 -7.770859 2.809465 -7.806725 3.084433 -7.806725H4.590785C5.236364 -7.806725 6.03736 -7.79477 6.491656 -7.280697C6.922042 -6.802491 6.945953 -6.097136 7.041594 -5.487422H7.304608L6.993773 -8.153425H0.478207Z'/>
<path id='g1-77' d='M0.526027 -8.177335V-7.830635H0.920548C1.315068 -7.830635 1.673724 -7.782814 1.673724 -7.340473C1.673724 -7.256787 1.661768 -7.185056 1.661768 -7.113325V-1.207472C1.661768 -0.442341 1.028144 -0.358655 0.526027 -0.358655V-0.011955H3.084433V-0.358655C2.534496 -0.358655 1.948692 -0.466252 1.948692 -1.267248L1.960648 -7.782814C2.020423 -7.579577 2.116065 -7.376339 2.187796 -7.173101C2.881196 -5.391781 3.53873 -3.622416 4.220174 -1.841096L4.758157 -0.442341C4.805978 -0.286924 4.853798 -0.047821 5.033126 -0.011955H5.045081C5.224408 -0.011955 5.272229 -0.286924 5.32005 -0.418431L7.436115 -5.941719C7.591532 -6.360149 7.746949 -6.77858 7.914321 -7.197011L8.057783 -7.591532C8.093649 -7.675218 8.129514 -7.758904 8.153425 -7.854545L8.16538 -1.159651C8.16538 -1.06401 8.177335 -0.956413 8.177335 -0.860772C8.177335 -0.406476 7.806725 -0.3467 7.436115 -0.3467C7.292653 -0.3467 7.149191 -0.358655 7.029639 -0.358655V-0.011955H10.185803V-0.358655H9.803238C9.408717 -0.358655 9.038107 -0.406476 9.038107 -0.860772C9.038107 -0.944458 9.050062 -1.016189 9.050062 -1.08792V-7.304608C9.050062 -7.770859 9.408717 -7.84259 9.767372 -7.84259C9.910834 -7.84259 10.054296 -7.830635 10.185803 -7.830635V-8.177335H8.272976L8.069738 -8.141469L7.830635 -7.627397L5.36787 -1.159651H5.34396L2.881196 -7.627397L2.642092 -8.141469L2.438854 -8.177335H0.526027Z'/>
<path id='g1-86' d='M0.215193 -8.177335V-7.830635H0.466252C0.729265 -7.830635 0.992279 -7.806725 1.159651 -7.651308C1.303113 -7.49589 1.362889 -7.244832 1.446575 -7.041594L1.876961 -5.893898C2.594271 -4.004981 3.299626 -2.116065 4.028892 -0.239103L4.124533 0.02391C4.172354 0.155417 4.23213 0.239103 4.387547 0.239103C4.62665 0.239103 4.662516 -0.047821 4.734247 -0.227148C5.559153 -2.438854 6.455791 -4.638605 7.244832 -6.850311C7.436115 -7.328518 7.651308 -7.830635 8.547945 -7.830635V-8.177335H6.240598V-7.830635C6.491656 -7.830635 6.718804 -7.746949 6.898132 -7.567621L6.969863 -7.460025C7.005729 -7.400249 7.017684 -7.328518 7.017684 -7.268742C7.017684 -7.113325 6.933998 -6.957908 6.886177 -6.802491L6.659029 -6.216687C6.085181 -4.698381 5.523288 -3.16812 4.925529 -1.661768C4.853798 -1.470486 4.794022 -1.279203 4.710336 -1.099875C3.921295 -3.036613 3.19203 -5.033126 2.462765 -7.005729L2.343213 -7.316563C2.319303 -7.364384 2.307347 -7.424159 2.307347 -7.483935V-7.519801C2.367123 -7.830635 2.881196 -7.830635 3.19203 -7.830635V-8.177335H0.215193Z'/>
<path id='g1-97' d='M1.255293 -4.399502C1.542217 -4.853798 2.068244 -5.092902 2.594271 -5.092902C3.275716 -5.092902 3.825654 -4.399502 3.825654 -3.741968V-3.096389C2.618182 -3.096389 0.514072 -2.761644 0.514072 -1.123786V-1.004234C0.621669 -0.191283 1.613948 0.119552 2.319303 0.119552C2.940971 0.119552 3.718057 -0.263014 3.897385 -0.920548H3.90934C3.945205 -0.358655 4.351681 0.047821 4.829888 0.047821C5.332005 0.047821 5.726526 -0.382565 5.774346 -0.872727V-1.745455H5.511333V-1.159651C5.511333 -0.812951 5.451557 -0.298879 5.057036 -0.298879C4.674471 -0.298879 4.590785 -0.812951 4.590785 -1.111831C4.590785 -1.243337 4.60274 -1.374844 4.60274 -1.506351V-3.16812C4.60274 -3.299626 4.614695 -3.443088 4.614695 -3.574595C4.614695 -4.698381 3.574595 -5.332005 2.594271 -5.332005C1.829141 -5.332005 0.860772 -4.877709 0.860772 -3.945205C0.860772 -3.598506 1.08792 -3.407223 1.374844 -3.407223S1.865006 -3.634371 1.865006 -3.90934C1.865006 -4.208219 1.637858 -4.399502 1.350934 -4.399502H1.255293ZM3.825654 -2.881196V-1.745455C3.825654 -0.896638 3.287671 -0.131507 2.438854 -0.131507C1.984558 -0.131507 1.374844 -0.490162 1.374844 -1.099875C1.374844 -2.15193 2.331258 -2.689913 3.323537 -2.833375C3.490909 -2.857285 3.658281 -2.84533 3.825654 -2.881196Z'/>
<path id='g1-98' d='M0.334745 -8.177335V-7.830635H0.526027C0.884682 -7.830635 1.243337 -7.79477 1.243337 -7.232877V-0.011955L1.494396 -0.035866L1.637858 -0.239103L1.924782 -0.789041C2.331258 -0.274969 2.797509 0.107597 3.502864 0.107597C4.913574 0.107597 6.073225 -1.123786 6.073225 -2.594271C6.073225 -3.981071 5.021171 -5.272229 3.634371 -5.272229C3.036613 -5.272229 2.283437 -4.985305 2.008468 -4.471233L1.996513 -8.308842L0.334745 -8.177335ZM5.140722 -2.307347C5.092902 -1.733499 5.033126 -1.219427 4.686426 -0.777086C4.375592 -0.382565 3.90934 -0.131507 3.431133 -0.131507C2.940971 -0.131507 2.486675 -0.418431 2.199751 -0.836862C2.116065 -0.980324 2.020423 -1.111831 2.020423 -1.303113V-3.287671C2.020423 -3.443088 2.008468 -3.598506 2.008468 -3.753923C2.008468 -4.471233 2.84533 -5.021171 3.550685 -5.021171C4.865753 -5.021171 5.152677 -3.56264 5.152677 -2.570361C5.152677 -2.486675 5.152677 -2.391034 5.140722 -2.307347Z'/>
<path id='g1-99' d='M4.315816 -4.447323C4.27995 -4.447323 4.25604 -4.459278 4.220174 -4.459278C3.945205 -4.459278 3.730012 -4.23213 3.730012 -3.957161C3.730012 -3.658281 3.957161 -3.455044 4.220174 -3.455044C4.495143 -3.455044 4.734247 -3.646326 4.734247 -3.969116C4.734247 -4.94944 3.658281 -5.332005 2.893151 -5.332005C1.446575 -5.332005 0.418431 -3.981071 0.418431 -2.594271C0.418431 -1.219427 1.446575 0.107597 2.929016 0.107597C3.730012 0.107597 4.435367 -0.32279 4.782067 -1.147696C4.805978 -1.219427 4.853798 -1.327024 4.853798 -1.422665V-1.470486C4.841843 -1.518306 4.794022 -1.542217 4.746202 -1.542217C4.566874 -1.542217 4.566874 -1.362889 4.531009 -1.243337C4.303861 -0.609714 3.694147 -0.155417 3.024658 -0.155417C1.75741 -0.155417 1.338979 -1.578082 1.338979 -2.570361C1.338979 -3.550685 1.649813 -5.068991 2.988792 -5.068991C3.466999 -5.068991 4.028892 -4.853798 4.315816 -4.447323Z'/>
<path id='g1-100' d='M3.58655 -8.177335V-7.830635H3.730012C4.208219 -7.830635 4.495143 -7.806725 4.495143 -7.089415V-4.519054C4.112578 -4.985305 3.598506 -5.272229 2.988792 -5.272229C1.530262 -5.272229 0.418431 -4.004981 0.418431 -2.570361C0.418431 -1.303113 1.327024 0.107597 2.881196 0.107597C3.526775 0.107597 3.981071 -0.167372 4.471233 -0.705355V0.107597L6.156912 -0.011955V-0.358655H5.965629C5.606974 -0.358655 5.248319 -0.394521 5.248319 -0.956413V-8.308842L3.58655 -8.177335ZM1.338979 -2.295392V-2.47472C1.338979 -3.347447 1.446575 -4.25604 2.271482 -4.805978C2.510585 -4.94944 2.773599 -5.021171 3.036613 -5.021171C3.634371 -5.021171 4.483188 -4.542964 4.483188 -3.789788C4.483188 -3.634371 4.471233 -3.478954 4.471233 -3.323537V-1.350934C4.471233 -0.669489 3.526775 -0.131507 2.940971 -0.131507C2.056289 -0.131507 1.494396 -0.968369 1.3868 -1.829141C1.362889 -1.984558 1.362889 -2.139975 1.338979 -2.295392Z'/>
<path id='g1-101' d='M1.267248 -2.785554H4.686426C4.805978 -2.785554 4.865753 -2.833375 4.865753 -2.952927C4.865753 -4.184309 4.208219 -5.332005 2.797509 -5.332005C1.362889 -5.332005 0.3467 -4.028892 0.3467 -2.642092C0.3467 -1.590037 0.908593 -0.526027 1.948692 -0.095641C2.223661 0.02391 2.52254 0.107597 2.82142 0.107597H2.857285C3.730012 0.107597 4.578829 -0.418431 4.829888 -1.303113C4.841843 -1.338979 4.865753 -1.3868 4.865753 -1.43462C4.865753 -1.494396 4.794022 -1.554172 4.734247 -1.554172C4.590785 -1.554172 4.531009 -1.231382 4.447323 -1.075965C4.148443 -0.537983 3.58655 -0.155417 2.940971 -0.155417C2.486675 -0.155417 2.080199 -0.406476 1.793275 -0.74122C1.315068 -1.315068 1.267248 -2.068244 1.267248 -2.785554ZM1.279203 -3.012702C1.279203 -3.921295 1.78132 -5.092902 2.773599 -5.092902C3.825654 -5.092902 4.112578 -3.861519 4.112578 -3.012702H1.279203Z'/>
<path id='g1-103' d='M3.837609 -4.841843H3.825654C3.502864 -5.140722 3.024658 -5.272229 2.606227 -5.272229C1.709589 -5.272229 0.71731 -4.65056 0.71731 -3.53873C0.71731 -3.144209 0.860772 -2.749689 1.123786 -2.450809C1.159651 -2.414944 1.219427 -2.355168 1.219427 -2.295392S1.147696 -2.163885 1.123786 -2.116065C0.980324 -1.876961 0.896638 -1.590037 0.896638 -1.315068C0.896638 -0.932503 1.06401 -0.478207 1.41071 -0.286924V-0.274969C0.860772 -0.131507 0.32279 0.334745 0.32279 0.920548C0.32279 2.008468 1.888917 2.438854 2.905106 2.438854C3.873474 2.438854 5.511333 2.092154 5.511333 0.908593C5.511333 -0.561893 4.052802 -0.777086 3.072478 -0.777086H2.15193C1.625903 -0.777086 1.231382 -1.052055 1.231382 -1.566127V-1.613948C1.243337 -1.817186 1.327024 -1.984558 1.422665 -2.163885C1.769365 -1.972603 2.080199 -1.817186 2.47472 -1.793275H2.570361C3.514819 -1.793275 4.315816 -2.379078 4.471233 -3.395268V-3.526775C4.471233 -3.93325 4.327771 -4.220174 4.112578 -4.566874C4.076712 -4.60274 4.040847 -4.638605 4.040847 -4.686426V-4.698381C4.124533 -4.961395 4.794022 -5.152677 5.057036 -5.152677C5.116812 -5.152677 5.164633 -5.152677 5.224408 -5.140722C5.116812 -5.080946 5.033126 -4.97335 5.033126 -4.841843C5.033126 -4.662516 5.188543 -4.531009 5.355915 -4.531009C5.547198 -4.531009 5.66675 -4.674471 5.66675 -4.865753V-4.925529C5.618929 -5.200498 5.379826 -5.403736 5.092902 -5.403736C4.662516 -5.403736 4.124533 -5.212453 3.837609 -4.841843ZM0.908593 1.004234V0.908593C0.908593 0.502117 1.195517 0.107597 1.578082 -0.047821C1.745455 -0.107597 1.936737 -0.119552 2.116065 -0.119552H2.929016C3.718057 -0.119552 4.794022 -0.059776 4.925529 0.848817V0.932503C4.925529 1.841096 3.658281 2.187796 2.940971 2.187796C2.139975 2.187796 1.028144 1.865006 0.908593 1.004234ZM1.554172 -3.299626V-3.455044C1.554172 -4.028892 1.637858 -5.021171 2.582316 -5.021171C3.347447 -5.021171 3.634371 -4.267995 3.634371 -3.526775C3.634371 -3.000747 3.53873 -2.056289 2.606227 -2.056289C1.900872 -2.056289 1.625903 -2.642092 1.554172 -3.299626Z'/>
<path id='g1-104' d='M0.382565 -8.177335V-7.830635H0.597758C0.980324 -7.830635 1.291158 -7.782814 1.291158 -7.232877V-0.848817C1.291158 -0.406476 0.980324 -0.358655 0.645579 -0.358655H0.382565V-0.011955H2.976837V-0.358655H2.701868C2.355168 -0.358655 2.068244 -0.406476 2.068244 -0.848817V-3.036613C2.068244 -3.861519 2.486675 -5.033126 3.658281 -5.033126C4.387547 -5.033126 4.542964 -4.327771 4.542964 -3.622416V-0.812951C4.542964 -0.394521 4.196264 -0.358655 3.837609 -0.358655H3.634371V-0.011955H6.228643V-0.358655H5.953674C5.630884 -0.358655 5.32005 -0.37061 5.32005 -0.824907V-3.53873C5.32005 -3.921295 5.308095 -4.303861 5.104857 -4.638605C4.829888 -5.116812 4.267995 -5.272229 3.741968 -5.272229C3.012702 -5.272229 2.271482 -4.829888 2.056289 -4.124533L2.044334 -8.308842L0.382565 -8.177335Z'/>
<path id='g1-105' d='M0.442341 -5.140722V-4.794022H0.633624C1.016189 -4.794022 1.303113 -4.734247 1.303113 -4.196264V-0.860772C1.303113 -0.418431 1.075965 -0.358655 0.394521 -0.358655V-0.011955H2.86924V-0.358655H2.701868C2.355168 -0.358655 2.056289 -0.382565 2.056289 -0.789041V-5.272229L0.442341 -5.140722ZM1.41071 -7.938232C1.08792 -7.890411 0.920548 -7.627397 0.920548 -7.376339S1.111831 -6.790535 1.482441 -6.790535S2.080199 -7.07746 2.080199 -7.364384C2.080199 -7.615442 1.888917 -7.950187 1.518306 -7.950187C1.482441 -7.950187 1.446575 -7.938232 1.41071 -7.938232Z'/>
<path id='g1-108' d='M0.394521 -8.177335V-7.830635H0.609714C0.992279 -7.830635 1.303113 -7.782814 1.303113 -7.220922V-0.848817C1.303113 -0.406476 0.992279 -0.358655 0.657534 -0.358655H0.394521V-0.011955H2.964882V-0.358655H2.677958C2.331258 -0.358655 2.056289 -0.394521 2.056289 -0.824907V-8.308842L0.394521 -8.177335Z'/>
<path id='g1-109' d='M0.382565 -5.140722V-4.794022H0.609714C0.956413 -4.794022 1.291158 -4.746202 1.291158 -4.196264V-0.860772C1.291158 -0.418431 1.06401 -0.358655 0.382565 -0.358655V-0.011955H2.976837V-0.358655H2.701868C2.355168 -0.358655 2.068244 -0.406476 2.068244 -0.848817V-3.036613C2.068244 -3.861519 2.486675 -5.033126 3.658281 -5.033126C4.387547 -5.033126 4.542964 -4.327771 4.542964 -3.622416V-0.812951C4.542964 -0.394521 4.196264 -0.358655 3.837609 -0.358655H3.634371V-0.011955H6.228643V-0.358655H5.953674C5.606974 -0.358655 5.32005 -0.406476 5.32005 -0.848817V-3.036613C5.32005 -3.861519 5.738481 -5.033126 6.910087 -5.033126C7.639352 -5.033126 7.79477 -4.327771 7.79477 -3.622416V-0.812951C7.79477 -0.394521 7.44807 -0.358655 7.089415 -0.358655H6.886177V-0.011955H9.480448V-0.358655H9.205479C8.88269 -0.358655 8.571856 -0.37061 8.571856 -0.824907V-3.53873C8.571856 -3.90934 8.5599 -4.27995 8.368618 -4.614695C8.093649 -5.104857 7.531756 -5.272229 6.993773 -5.272229C6.264508 -5.272229 5.511333 -4.817933 5.296139 -4.100623H5.284184C5.200498 -4.925529 4.471233 -5.272229 3.682192 -5.272229C2.940971 -5.272229 2.211706 -4.722291 2.020423 -4.040847L2.008468 -5.272229L0.382565 -5.140722Z'/>
<path id='g1-110' d='M0.382565 -5.140722V-4.794022H0.609714C0.956413 -4.794022 1.291158 -4.746202 1.291158 -4.196264V-0.860772C1.291158 -0.418431 1.06401 -0.358655 0.382565 -0.358655V-0.011955H2.976837V-0.358655H2.701868C2.355168 -0.358655 2.068244 -0.406476 2.068244 -0.848817V-3.036613C2.068244 -3.861519 2.486675 -5.033126 3.658281 -5.033126C4.387547 -5.033126 4.542964 -4.327771 4.542964 -3.622416V-0.812951C4.542964 -0.394521 4.196264 -0.358655 3.837609 -0.358655H3.634371V-0.011955H6.228643V-0.358655H5.953674C5.630884 -0.358655 5.32005 -0.37061 5.32005 -0.824907V-3.53873C5.32005 -3.921295 5.308095 -4.291905 5.116812 -4.62665C4.841843 -5.104857 4.267995 -5.272229 3.753923 -5.272229C3.16812 -5.272229 2.666002 -5.057036 2.259527 -4.495143C2.15193 -4.351681 2.068244 -4.208219 2.020423 -4.040847L2.008468 -5.272229L0.382565 -5.140722Z'/>
<path id='g1-111' d='M2.749689 -5.332005C1.470486 -5.212453 0.3467 -4.100623 0.3467 -2.582316C0.3467 -1.219427 1.350934 0.107597 2.929016 0.107597C4.363636 0.107597 5.487422 -1.159651 5.487422 -2.558406C5.487422 -3.897385 4.495143 -5.34396 2.905106 -5.34396C2.857285 -5.34396 2.797509 -5.332005 2.749689 -5.332005ZM1.267248 -2.307347C1.255293 -2.402989 1.255293 -2.49863 1.255293 -2.594271C1.255293 -3.419178 1.338979 -4.507098 2.259527 -4.937484C2.462765 -5.033126 2.689913 -5.080946 2.905106 -5.080946C3.359402 -5.080946 3.801743 -4.877709 4.100623 -4.519054C4.519054 -4.028892 4.566874 -3.359402 4.566874 -2.737733C4.566874 -2.068244 4.554919 -1.303113 4.100623 -0.74122C3.801743 -0.37061 3.359402 -0.155417 2.905106 -0.155417C1.912827 -0.155417 1.398755 -1.052055 1.303113 -1.936737C1.279203 -2.056289 1.279203 -2.187796 1.267248 -2.307347Z'/>
<path id='g1-112' d='M0.334745 -5.140722V-4.794022H0.549938C0.908593 -4.794022 1.243337 -4.758157 1.243337 -4.25604V1.243337C1.243337 1.315068 1.255293 1.398755 1.255293 1.482441C1.255293 1.936737 0.896638 1.960648 0.502117 1.960648H0.334745V2.307347H2.929016V1.960648H2.666002C2.331258 1.960648 2.020423 1.912827 2.020423 1.482441L2.032379 -0.657534C2.331258 -0.155417 2.988792 0.107597 3.53873 0.107597C4.985305 0.107597 6.073225 -1.195517 6.073225 -2.606227C6.073225 -3.945205 5.068991 -5.272229 3.622416 -5.272229C2.964882 -5.272229 2.426899 -4.94944 1.996513 -4.471233V-5.272229L0.334745 -5.140722ZM5.140722 -2.391034C5.080946 -1.590037 4.794022 -0.6934 3.993026 -0.263014C3.813699 -0.179328 3.622416 -0.131507 3.419178 -0.131507C2.857285 -0.131507 2.020423 -0.681445 2.020423 -1.291158V-3.287671C2.020423 -3.443088 2.008468 -3.58655 2.008468 -3.741968C2.008468 -4.411457 2.82142 -5.009215 3.526775 -5.009215C4.734247 -5.009215 5.152677 -3.431133 5.152677 -2.606227C5.152677 -2.534496 5.152677 -2.462765 5.140722 -2.391034Z'/>
<path id='g1-114' d='M0.334745 -5.140722V-4.794022H0.526027C0.884682 -4.794022 1.243337 -4.758157 1.243337 -4.196264V-0.860772C1.243337 -0.418431 1.016189 -0.358655 0.334745 -0.358655V-0.011955H3.132254V-0.358655C3.000747 -0.358655 2.857285 -0.3467 2.713823 -0.3467C2.331258 -0.3467 1.996513 -0.406476 1.996513 -0.848817V-2.47472C1.996513 -3.395268 2.139975 -4.710336 3.120299 -4.99726C3.21594 -5.021171 3.299626 -5.033126 3.395268 -5.033126C3.455044 -5.033126 3.502864 -5.021171 3.56264 -5.021171V-5.009215C3.383313 -4.937484 3.275716 -4.758157 3.275716 -4.566874C3.275716 -4.291905 3.502864 -4.100623 3.741968 -4.100623C4.052802 -4.100623 4.220174 -4.339726 4.220174 -4.578829C4.220174 -5.021171 3.801743 -5.272229 3.395268 -5.272229C2.761644 -5.272229 2.295392 -4.817933 2.068244 -4.291905C2.020423 -4.184309 1.960648 -4.064757 1.948692 -3.945205L1.936737 -5.272229L0.334745 -5.140722Z'/>
<path id='g1-115' d='M3.395268 -4.961395C3.060523 -5.236364 2.666002 -5.332005 2.247572 -5.332005C1.3868 -5.332005 0.394521 -4.99726 0.394521 -3.849564V-3.741968C0.836862 -1.733499 3.670237 -2.964882 3.670237 -1.207472C3.670237 -0.466252 3.000747 -0.131507 2.367123 -0.131507C1.171606 -0.131507 0.872727 -1.099875 0.669489 -1.924782C0.645579 -1.996513 0.609714 -2.056289 0.526027 -2.056289C0.418431 -2.056289 0.394521 -1.972603 0.394521 -1.888917V-0.035866C0.394521 0.02391 0.418431 0.107597 0.514072 0.107597C0.71731 0.107597 0.884682 -0.406476 1.016189 -0.406476H1.028144C1.111831 -0.382565 1.171606 -0.286924 1.243337 -0.227148C1.566127 0.011955 1.948692 0.107597 2.355168 0.107597C3.239851 0.107597 4.220174 -0.334745 4.220174 -1.530262C4.220174 -2.235616 3.658281 -2.86924 3.000747 -3.072478C2.355168 -3.275716 0.932503 -3.227895 0.932503 -4.196264C0.932503 -4.877709 1.649813 -5.116812 2.211706 -5.116812C2.905106 -5.116812 3.658281 -4.746202 3.658281 -3.730012C3.658281 -3.622416 3.670237 -3.53873 3.801743 -3.53873C3.897385 -3.53873 3.921295 -3.610461 3.921295 -3.694147V-5.188543C3.921295 -5.248319 3.88543 -5.332005 3.813699 -5.332005C3.658281 -5.332005 3.466999 -5.045081 3.395268 -4.961395Z'/>
<path id='g1-116' d='M1.745455 -7.364384C1.745455 -6.587298 1.43462 -5.045081 0.215193 -5.045081V-4.805978H1.231382V-2.10411C1.231382 -1.936737 1.219427 -1.769365 1.219427 -1.601993C1.219427 -0.526027 1.769365 0.107597 2.761644 0.107597C3.682192 0.107597 3.897385 -0.920548 3.897385 -1.661768V-2.175841H3.634371C3.634371 -1.996513 3.646326 -1.817186 3.646326 -1.637858C3.646326 -1.123786 3.550685 -0.155417 2.82142 -0.155417C2.139975 -0.155417 2.008468 -0.980324 2.008468 -1.566127V-4.805978H3.694147V-5.152677H2.008468V-7.364384H1.745455Z'/>
<path id='g1-117' d='M0.382565 -5.140722V-4.794022H0.537983C1.0401 -4.794022 1.291158 -4.746202 1.291158 -4.028892V-1.637858C1.291158 -1.267248 1.303113 -0.884682 1.494396 -0.561893C1.80523 -0.035866 2.462765 0.119552 3.024658 0.119552C3.670237 0.119552 4.375592 -0.298879 4.554919 -0.956413L4.566874 0.107597L6.228643 -0.011955V-0.358655H6.001494C5.654795 -0.358655 5.32005 -0.406476 5.32005 -0.932503V-5.272229L3.634371 -5.140722V-4.794022H3.777833C4.184309 -4.794022 4.542964 -4.770112 4.542964 -4.196264V-1.829141C4.483188 -0.992279 4.016936 -0.143462 3.084433 -0.143462C2.642092 -0.143462 2.211706 -0.251059 2.092154 -0.884682C2.068244 -1.111831 2.068244 -1.350934 2.068244 -1.578082V-5.272229L0.382565 -5.140722Z'/>
<path id='g1-118' d='M0.215193 -5.152677V-4.805978H0.442341C0.860772 -4.805978 1.0401 -4.662516 1.195517 -4.27995L1.43462 -3.670237C1.888917 -2.510585 2.343213 -1.350934 2.82142 -0.203238C2.86924 -0.071731 2.917061 0.107597 3.084433 0.107597S3.299626 -0.071731 3.347447 -0.203238C3.813699 -1.3868 4.27995 -2.570361 4.758157 -3.741968C5.021171 -4.387547 5.308095 -4.805978 5.953674 -4.805978V-5.152677H4.088667V-4.805978C4.375592 -4.794022 4.65056 -4.60274 4.65056 -4.291905C4.65056 -4.124533 4.566874 -3.969116 4.507098 -3.825654C4.267995 -3.19203 3.993026 -2.558406 3.741968 -1.912827L3.502864 -1.291158C3.455044 -1.171606 3.383313 -1.052055 3.359402 -0.920548C3.287671 -1.004234 3.263761 -1.123786 3.227895 -1.219427L3.000747 -1.769365C2.677958 -2.594271 2.355168 -3.419178 2.020423 -4.23213C1.984558 -4.315816 1.948692 -4.399502 1.948692 -4.495143V-4.542964C2.020423 -4.805978 2.367123 -4.805978 2.606227 -4.805978V-5.152677H0.215193Z'/>
<path id='g1-119' d='M0.215193 -5.152677V-4.805978H0.382565C1.016189 -4.805978 1.08792 -4.399502 1.338979 -3.610461C1.721544 -2.462765 2.139975 -1.338979 2.546451 -0.203238C2.594271 -0.083686 2.618182 0.095641 2.785554 0.107597C2.952927 0.107597 2.988792 -0.035866 3.036613 -0.167372L3.359402 -1.06401C3.634371 -1.865006 3.897385 -2.713823 4.220174 -3.502864C4.423412 -3.012702 4.578829 -2.49863 4.758157 -1.996513L5.403736 -0.167372C5.451557 -0.035866 5.487422 0.107597 5.654795 0.107597C5.810212 0.095641 5.846077 -0.071731 5.893898 -0.191283C6.300374 -1.398755 6.75467 -2.606227 7.161146 -3.801743C7.364384 -4.387547 7.627397 -4.782067 8.225156 -4.805978V-5.152677H6.324284V-4.805978C6.635118 -4.794022 7.005729 -4.590785 7.005729 -4.25604C7.005729 -3.993026 6.814446 -3.58655 6.694894 -3.275716C6.419925 -2.486675 6.097136 -1.697634 5.858032 -0.896638H5.846077C5.774346 -1.183562 5.642839 -1.458531 5.559153 -1.733499C5.272229 -2.558406 4.94944 -3.383313 4.686426 -4.220174C4.65056 -4.303861 4.614695 -4.399502 4.614695 -4.495143V-4.542964C4.686426 -4.794022 5.009215 -4.805978 5.236364 -4.805978H5.296139V-5.152677H3.048568V-4.805978H3.21594C3.670237 -4.805978 3.837609 -4.662516 3.969116 -4.220174C4.004981 -4.136488 4.064757 -4.016936 4.064757 -3.921295V-3.897385C4.052802 -3.789788 3.993026 -3.670237 3.957161 -3.574595L3.741968 -2.964882C3.514819 -2.319303 3.275716 -1.673724 3.060523 -1.028144C2.917061 -1.327024 2.82142 -1.673724 2.713823 -1.996513L1.924782 -4.220174C1.900872 -4.303861 1.853051 -4.399502 1.853051 -4.483188C1.853051 -4.782067 2.283437 -4.805978 2.534496 -4.805978V-5.152677H0.215193Z'/>
<path id='g1-120' d='M0.179328 -5.152677V-4.805978H0.406476C1.099875 -4.805978 1.255293 -4.471233 1.554172 -4.088667C1.829141 -3.730012 2.092154 -3.371357 2.367123 -3.012702C2.49863 -2.84533 2.606227 -2.654047 2.761644 -2.510585V-2.49863C2.630137 -2.379078 2.534496 -2.223661 2.426899 -2.092154C1.829141 -1.327024 1.291158 -0.358655 0.119552 -0.358655V-0.011955H2.187796V-0.358655C1.948692 -0.418431 1.853051 -0.537983 1.853051 -0.729265C1.853051 -0.992279 2.056289 -1.183562 2.199751 -1.374844C2.438854 -1.673724 2.701868 -1.960648 2.917061 -2.283437H2.929016C3.21594 -1.817186 3.610461 -1.327024 3.957161 -0.920548C4.016936 -0.836862 4.088667 -0.753176 4.088667 -0.645579C4.088667 -0.466252 3.837609 -0.37061 3.682192 -0.358655V-0.011955H6.049315V-0.358655H5.822167C5.248319 -0.358655 5.057036 -0.561893 4.614695 -1.171606C4.351681 -1.518306 4.088667 -1.853051 3.825654 -2.199751C3.670237 -2.402989 3.526775 -2.642092 3.347447 -2.82142V-2.833375C4.100623 -3.58655 4.483188 -4.805978 5.858032 -4.805978V-5.152677H3.777833V-4.805978C3.993026 -4.805978 4.112578 -4.60274 4.112578 -4.435367C4.112578 -4.052802 3.646326 -3.646326 3.407223 -3.323537C3.335492 -3.227895 3.251806 -3.144209 3.19203 -3.048568H3.180075C2.86924 -3.526775 2.438854 -3.945205 2.15193 -4.423412C2.139975 -4.459278 2.139975 -4.483188 2.139975 -4.507098C2.139975 -4.686426 2.391034 -4.794022 2.558406 -4.805978V-5.152677H0.179328Z'/>
<path id='g1-122' d='M0.621669 -5.152677L0.490162 -3.251806H0.753176C0.777086 -3.670237 0.800996 -4.172354 1.075965 -4.507098C1.362889 -4.877709 1.888917 -4.913574 2.355168 -4.913574H3.741968C2.642092 -3.407223 1.566127 -1.900872 0.454296 -0.418431C0.406476 -0.3467 0.32279 -0.239103 0.32279 -0.143462C0.32279 -0.035866 0.406476 -0.011955 0.502117 -0.011955H4.507098L4.698381 -2.211706H4.435367C4.399502 -1.733499 4.363636 -1.147696 4.064757 -0.74122C3.730012 -0.310834 3.144209 -0.274969 2.654047 -0.274969H1.255293C1.3868 -0.442341 1.506351 -0.621669 1.637858 -0.789041L2.259527 -1.649813C3.012702 -2.689913 3.789788 -3.718057 4.531009 -4.758157C4.590785 -4.817933 4.674471 -4.925529 4.674471 -5.021171C4.674471 -5.128767 4.590785 -5.152677 4.495143 -5.152677H0.621669Z'/>
</defs>
<g id='page1'>
<use x='17.292255' y='40.982972' xlink:href='#g1-86'/>
<use x='25.090268' y='40.982972' xlink:href='#g1-111'/>
<use x='30.94189' y='40.982972' xlink:href='#g1-114'/>
<use x='35.493156' y='40.982972' xlink:href='#g1-122'/>
<use x='40.694594' y='40.982972' xlink:href='#g1-101'/>
<use x='45.896055' y='40.982972' xlink:href='#g1-105'/>
<use x='49.146952' y='40.982972' xlink:href='#g1-99'/>
<use x='54.0233' y='40.982972' xlink:href='#g1-104'/>
<use x='60.525106' y='40.982972' xlink:href='#g1-101'/>
<use x='65.726567' y='40.982972' xlink:href='#g1-110'/>
<use x='71.903283' y='40.982972' xlink:href='#g1-98'/>
<use x='78.405089' y='40.982972' xlink:href='#g1-105'/>
<use x='81.655986' y='40.982972' xlink:href='#g1-116'/>
<use x='90.108333' y='40.982972' xlink:href='#g0-115'/>
<use x='99.52342' y='40.982972' xlink:href='#g1-61'/>
<use x='112.527021' y='40.982972' xlink:href='#g1-48'/>
<use x='122.279725' y='40.982972' xlink:href='#g1-40'/>
<use x='126.83099' y='40.982972' xlink:href='#g1-112'/>
<use x='133.657871' y='40.982972' xlink:href='#g1-111'/>
<use x='139.509493' y='40.982972' xlink:href='#g1-115'/>
<use x='144.125769' y='40.982972' xlink:href='#g1-105'/>
<use x='147.376666' y='40.982972' xlink:href='#g1-116'/>
<use x='151.927932' y='40.982972' xlink:href='#g1-105'/>
<use x='155.178829' y='40.982972' xlink:href='#g1-118'/>
<use x='161.355538' y='40.982972' xlink:href='#g1-41'/>
<use x='169.807884' y='40.982972' xlink:href='#g1-117'/>
<use x='176.309691' y='40.982972' xlink:href='#g1-110'/>
<use x='182.811497' y='40.982972' xlink:href='#g1-100'/>
<use x='193.214384' y='40.982972' xlink:href='#g1-49'/>
<use x='202.967088' y='40.982972' xlink:href='#g1-40'/>
<use x='207.518353' y='40.982972' xlink:href='#g1-110'/>
<use x='214.020159' y='40.982972' xlink:href='#g1-101'/>
<use x='219.22162' y='40.982972' xlink:href='#g1-103'/>
<use x='225.073242' y='40.982972' xlink:href='#g1-97'/>
<use x='230.924864' y='40.982972' xlink:href='#g1-116'/>
<use x='235.47613' y='40.982972' xlink:href='#g1-105'/>
<use x='238.727027' y='40.982972' xlink:href='#g1-118'/>
<use x='244.903735' y='40.982972' xlink:href='#g1-41'/>
<use x='17.292255' y='55.4288' xlink:href='#g1-56'/>
<use x='23.143878' y='55.4288' xlink:href='#g1-45'/>
<use x='27.044959' y='55.4288' xlink:href='#g1-66'/>
<use x='35.332682' y='55.4288' xlink:href='#g1-105'/>
<use x='38.583579' y='55.4288' xlink:href='#g1-116'/>
<use x='47.035926' y='55.4288' xlink:href='#g1-69'/>
<use x='54.998563' y='55.4288' xlink:href='#g1-120'/>
<use x='61.175271' y='55.4288' xlink:href='#g1-112'/>
<use x='68.002152' y='55.4288' xlink:href='#g1-111'/>
<use x='73.853774' y='55.4288' xlink:href='#g1-110'/>
<use x='80.35558' y='55.4288' xlink:href='#g1-101'/>
<use x='85.557041' y='55.4288' xlink:href='#g1-110'/>
<use x='91.733757' y='55.4288' xlink:href='#g1-116'/>
<use x='100.186104' y='55.4288' xlink:href='#g1-105'/>
<use x='103.437001' y='55.4288' xlink:href='#g1-110'/>
<use x='113.839889' y='55.4288' xlink:href='#g1-66'/>
<use x='122.127612' y='55.4288' xlink:href='#g1-105'/>
<use x='125.378509' y='55.4288' xlink:href='#g1-97'/>
<use x='131.230131' y='55.4288' xlink:href='#g1-115'/>
<use x='139.747489' y='55.4288' xlink:href='#g1-49'/>
<use x='145.599111' y='55.4288' xlink:href='#g1-50'/>
<use x='151.450733' y='55.4288' xlink:href='#g1-55'/>
<use x='17.292255' y='69.874628' xlink:href='#g1-50'/>
<use x='23.143878' y='69.874628' xlink:href='#g1-51'/>
<use x='28.9955' y='69.874628' xlink:href='#g1-45'/>
<use x='32.896581' y='69.874628' xlink:href='#g1-66'/>
<use x='41.184304' y='69.874628' xlink:href='#g1-105'/>
<use x='44.435201' y='69.874628' xlink:href='#g1-116'/>
<use x='52.887548' y='69.874628' xlink:href='#g1-77'/>
<use x='63.611372' y='69.874628' xlink:href='#g1-97'/>
<use x='69.462994' y='69.874628' xlink:href='#g1-110'/>
<use x='75.63971' y='69.874628' xlink:href='#g1-116'/>
<use x='80.190975' y='69.874628' xlink:href='#g1-105'/>
<use x='83.441873' y='69.874628' xlink:href='#g1-115'/>
<use x='88.058149' y='69.874628' xlink:href='#g1-115'/>
<use x='92.674424' y='69.874628' xlink:href='#g1-101'/>
<use x='101.776967' y='69.874628' xlink:href='#g1-40'/>
<use x='106.328232' y='69.874628' xlink:href='#g1-110'/>
<use x='112.830038' y='69.874628' xlink:href='#g1-111'/>
<use x='118.68166' y='69.874628' xlink:href='#g1-114'/>
<use x='123.232926' y='69.874628' xlink:href='#g1-109'/>
<use x='132.985629' y='69.874628' xlink:href='#g1-97'/>
<use x='138.837251' y='69.874628' xlink:href='#g1-108'/>
<use x='142.088149' y='69.874628' xlink:href='#g1-105'/>
<use x='145.339046' y='69.874628' xlink:href='#g1-115'/>
<use x='149.955322' y='69.874628' xlink:href='#g1-105'/>
<use x='153.206219' y='69.874628' xlink:href='#g1-101'/>
<use x='158.40768' y='69.874628' xlink:href='#g1-114'/>
<use x='162.958946' y='69.874628' xlink:href='#g1-116'/>
<use x='167.510211' y='69.874628' xlink:href='#g1-41'/>
<use x='172.061476' y='69.874628' xlink:href='#g1-46'/>
<use x='179.213455' y='69.874628' xlink:href='#g1-68'/>
<use x='188.151362' y='69.874628' xlink:href='#g1-105'/>
<use x='191.40226' y='69.874628' xlink:href='#g1-101'/>
<use x='200.504802' y='69.874628' xlink:href='#g1-105'/>
<use x='203.755699' y='69.874628' xlink:href='#g1-109'/>
<use x='213.508403' y='69.874628' xlink:href='#g1-112'/>
<use x='220.010209' y='69.874628' xlink:href='#g1-108'/>
<use x='223.261106' y='69.874628' xlink:href='#g1-105'/>
<use x='226.512003' y='69.874628' xlink:href='#g1-122'/>
<use x='231.713442' y='69.874628' xlink:href='#g1-105'/>
<use x='234.964339' y='69.874628' xlink:href='#g1-116'/>
<use x='239.515604' y='69.874628' xlink:href='#g1-101'/>
<use x='248.618147' y='69.874628' xlink:href='#g1-49'/>
<use x='258.37085' y='69.874628' xlink:href='#g1-119'/>
<use x='266.823197' y='69.874628' xlink:href='#g1-105'/>
<use x='270.074094' y='69.874628' xlink:href='#g1-114'/>
<use x='274.62536' y='69.874628' xlink:href='#g1-100'/>
<use x='285.028247' y='69.874628' xlink:href='#g1-110'/>
<use x='291.530053' y='69.874628' xlink:href='#g1-105'/>
<use x='294.780951' y='69.874628' xlink:href='#g1-99'/>
<use x='299.657299' y='69.874628' xlink:href='#g1-104'/>
<use x='305.834015' y='69.874628' xlink:href='#g1-116'/>
<use x='314.286361' y='69.874628' xlink:href='#g1-103'/>
<use x='320.137984' y='69.874628' xlink:href='#g1-101'/>
<use x='325.339444' y='69.874628' xlink:href='#g1-115'/>
<use x='329.95572' y='69.874628' xlink:href='#g1-112'/>
<use x='336.782601' y='69.874628' xlink:href='#g1-101'/>
<use x='341.984062' y='69.874628' xlink:href='#g1-105'/>
<use x='345.23496' y='69.874628' xlink:href='#g1-99'/>
<use x='350.111307' y='69.874628' xlink:href='#g1-104'/>
<use x='356.613114' y='69.874628' xlink:href='#g1-101'/>
<use x='361.814574' y='69.874628' xlink:href='#g1-114'/>
<use x='366.36584' y='69.874628' xlink:href='#g1-116'/>
</g>
</svg>