<?xml version='1.0' encoding='UTF-8'?>
<!-- This file was generated by dvisvgm 2.6.3 -->
<svg version='1.1' xmlns='http://www.w3.org/2000/svg' xmlns:xlink='http://www.w3.org/1999/xlink' width='57.070098pt' height='18.769451pt' viewBox='17.292255 33.922853 28.535049 9.384725'>
<defs>
<path id='g1-61' d='M8.069738 -3.873474C8.237111 -3.873474 8.452304 -3.873474 8.452304 -4.088667C8.452304 -4.315816 8.249066 -4.315816 8.069738 -4.315816H1.028144C0.860772 -4.315816 0.645579 -4.315816 0.645579 -4.100623C0.645579 -3.873474 0.848817 -3.873474 1.028144 -3.873474H8.069738ZM8.069738 -1.649813C8.237111 -1.649813 8.452304 -1.649813 8.452304 -1.865006C8.452304 -2.092154 8.249066 -2.092154 8.069738 -2.092154H1.028144C0.860772 -2.092154 0.645579 -2.092154 0.645579 -1.876961C0.645579 -1.649813 0.848817 -1.649813 1.028144 -1.649813H8.069738Z'/>
<path id='g0-120' d='M5.66675 -4.877709C5.284184 -4.805978 5.140722 -4.519054 5.140722 -4.291905C5.140722 -4.004981 5.36787 -3.90934 5.535243 -3.90934C5.893898 -3.90934 6.144956 -4.220174 6.144956 -4.542964C6.144956 -5.045081 5.571108 -5.272229 5.068991 -5.272229C4.339726 -5.272229 3.93325 -4.554919 3.825654 -4.327771C3.550685 -5.224408 2.809465 -5.272229 2.594271 -5.272229C1.374844 -5.272229 0.729265 -3.706102 0.729265 -3.443088C0.729265 -3.395268 0.777086 -3.335492 0.860772 -3.335492C0.956413 -3.335492 0.980324 -3.407223 1.004234 -3.455044C1.41071 -4.782067 2.211706 -5.033126 2.558406 -5.033126C3.096389 -5.033126 3.203985 -4.531009 3.203985 -4.244085C3.203985 -3.981071 3.132254 -3.706102 2.988792 -3.132254L2.582316 -1.494396C2.402989 -0.777086 2.056289 -0.119552 1.422665 -0.119552C1.362889 -0.119552 1.06401 -0.119552 0.812951 -0.274969C1.243337 -0.358655 1.338979 -0.71731 1.338979 -0.860772C1.338979 -1.099875 1.159651 -1.243337 0.932503 -1.243337C0.645579 -1.243337 0.334745 -0.992279 0.334745 -0.609714C0.334745 -0.107597 0.896638 0.119552 1.41071 0.119552C1.984558 0.119552 2.391034 -0.334745 2.642092 -0.824907C2.833375 -0.119552 3.431133 0.119552 3.873474 0.119552C5.092902 0.119552 5.738481 -1.446575 5.738481 -1.709589C5.738481 -1.769365 5.69066 -1.817186 5.618929 -1.817186C5.511333 -1.817186 5.499377 -1.75741 5.463512 -1.661768C5.140722 -0.609714 4.447323 -0.119552 3.90934 -0.119552C3.490909 -0.119552 3.263761 -0.430386 3.263761 -0.920548C3.263761 -1.183562 3.311582 -1.374844 3.502864 -2.163885L3.921295 -3.789788C4.100623 -4.507098 4.507098 -5.033126 5.057036 -5.033126C5.080946 -5.033126 5.415691 -5.033126 5.66675 -4.877709Z'/>
<path id='g0-121' d='M3.144209 1.338979C2.82142 1.793275 2.355168 2.199751 1.769365 2.199751C1.625903 2.199751 1.052055 2.175841 0.872727 1.625903C0.908593 1.637858 0.968369 1.637858 0.992279 1.637858C1.350934 1.637858 1.590037 1.327024 1.590037 1.052055S1.362889 0.681445 1.183562 0.681445C0.992279 0.681445 0.573848 0.824907 0.573848 1.41071C0.573848 2.020423 1.08792 2.438854 1.769365 2.438854C2.964882 2.438854 4.172354 1.338979 4.507098 0.011955L5.678705 -4.65056C5.69066 -4.710336 5.71457 -4.782067 5.71457 -4.853798C5.71457 -5.033126 5.571108 -5.152677 5.391781 -5.152677C5.284184 -5.152677 5.033126 -5.104857 4.937484 -4.746202L4.052802 -1.231382C3.993026 -1.016189 3.993026 -0.992279 3.897385 -0.860772C3.658281 -0.526027 3.263761 -0.119552 2.689913 -0.119552C2.020423 -0.119552 1.960648 -0.777086 1.960648 -1.099875C1.960648 -1.78132 2.283437 -2.701868 2.606227 -3.56264C2.737733 -3.90934 2.809465 -4.076712 2.809465 -4.315816C2.809465 -4.817933 2.450809 -5.272229 1.865006 -5.272229C0.765131 -5.272229 0.32279 -3.53873 0.32279 -3.443088C0.32279 -3.395268 0.37061 -3.335492 0.454296 -3.335492C0.561893 -3.335492 0.573848 -3.383313 0.621669 -3.550685C0.908593 -4.554919 1.362889 -5.033126 1.829141 -5.033126C1.936737 -5.033126 2.139975 -5.033126 2.139975 -4.638605C2.139975 -4.327771 2.008468 -3.981071 1.829141 -3.526775C1.243337 -1.960648 1.243337 -1.566127 1.243337 -1.279203C1.243337 -0.143462 2.056289 0.119552 2.654047 0.119552C3.000747 0.119552 3.431133 0.011955 3.849564 -0.430386L3.861519 -0.418431C3.682192 0.286924 3.56264 0.753176 3.144209 1.338979Z'/>
</defs>
<g id='page1'>
<use x='17.292255' y='40.982972' xlink:href='#g0-121'/>
<use x='26.749737' y='40.982972' xlink:href='#g1-61'/>
<rect x='39.175217' y='33.922853' height='0.478187' width='6.652087'/>
<use x='39.175217' y='40.982972' xlink:href='#g0-120'/>
</g>
</svg>