<?xml version='1.0' encoding='UTF-8'?>
<!-- This file was generated by dvisvgm 2.6.3 -->
<svg version='1.1' xmlns='http://www.w3.org/2000/svg' xmlns:xlink='http://www.w3.org/1999/xlink' width='80.15877pt' height='19.925257pt' viewBox='17.292255 32.813606 40.079385 9.962629'>
<defs>
<path id='g0-100' d='M4.28792 -5.292154C4.29589 -5.308095 4.319801 -5.411706 4.319801 -5.419676C4.319801 -5.459527 4.28792 -5.531258 4.192279 -5.531258C4.160399 -5.531258 3.913325 -5.507347 3.730012 -5.491407L3.283686 -5.459527C3.108344 -5.443587 3.028643 -5.435616 3.028643 -5.292154C3.028643 -5.180573 3.140224 -5.180573 3.235866 -5.180573C3.618431 -5.180573 3.618431 -5.132752 3.618431 -5.061021C3.618431 -5.0132 3.55467 -4.750187 3.514819 -4.590785L3.124284 -3.036613C3.052553 -3.172105 2.82142 -3.514819 2.335243 -3.514819C1.3868 -3.514819 0.342715 -2.406974 0.342715 -1.227397C0.342715 -0.398506 0.876712 0.079701 1.490411 0.079701C2.000498 0.079701 2.438854 -0.326775 2.582316 -0.486177C2.725778 0.063761 3.267746 0.079701 3.363387 0.079701C3.730012 0.079701 3.913325 -0.223163 3.977086 -0.358655C4.136488 -0.645579 4.24807 -1.107846 4.24807 -1.139726C4.24807 -1.187547 4.216189 -1.243337 4.120548 -1.243337S4.008966 -1.195517 3.961146 -0.996264C3.849564 -0.557908 3.698132 -0.143462 3.387298 -0.143462C3.203985 -0.143462 3.132254 -0.294894 3.132254 -0.518057C3.132254 -0.669489 3.156164 -0.757161 3.180075 -0.860772L4.28792 -5.292154ZM2.582316 -0.860772C2.183811 -0.310834 1.769365 -0.143462 1.514321 -0.143462C1.147696 -0.143462 0.964384 -0.478207 0.964384 -0.892653C0.964384 -1.267248 1.179577 -2.12005 1.354919 -2.470735C1.586052 -2.956912 1.976588 -3.291656 2.343213 -3.291656C2.86127 -3.291656 3.012702 -2.709838 3.012702 -2.614197C3.012702 -2.582316 2.81345 -1.801245 2.765629 -1.594022C2.662017 -1.219427 2.662017 -1.203487 2.582316 -0.860772Z'/>
<path id='g1-77' d='M10.855293 -7.292653C10.962889 -7.699128 10.9868 -7.81868 11.835616 -7.81868C12.062765 -7.81868 12.170361 -7.81868 12.170361 -8.045828C12.170361 -8.16538 12.086675 -8.16538 11.859527 -8.16538H10.424907C10.126027 -8.16538 10.114072 -8.153425 9.982565 -7.962142L5.618929 -1.06401L4.722291 -7.902366C4.686426 -8.16538 4.674471 -8.16538 4.363636 -8.16538H2.881196C2.654047 -8.16538 2.546451 -8.16538 2.546451 -7.938232C2.546451 -7.81868 2.654047 -7.81868 2.833375 -7.81868C3.56264 -7.81868 3.56264 -7.723039 3.56264 -7.591532C3.56264 -7.567621 3.56264 -7.49589 3.514819 -7.316563L1.984558 -1.219427C1.841096 -0.645579 1.566127 -0.382565 0.765131 -0.3467C0.729265 -0.3467 0.585803 -0.334745 0.585803 -0.131507C0.585803 0 0.6934 0 0.74122 0C0.980324 0 1.590037 -0.02391 1.829141 -0.02391H2.402989C2.570361 -0.02391 2.773599 0 2.940971 0C3.024658 0 3.156164 0 3.156164 -0.227148C3.156164 -0.334745 3.036613 -0.3467 2.988792 -0.3467C2.594271 -0.358655 2.211706 -0.430386 2.211706 -0.860772C2.211706 -0.980324 2.211706 -0.992279 2.259527 -1.159651L3.90934 -7.746949H3.921295L4.913574 -0.32279C4.94944 -0.035866 4.961395 0 5.068991 0C5.200498 0 5.260274 -0.095641 5.32005 -0.203238L10.126027 -7.806725H10.137983L8.404483 -0.884682C8.296887 -0.466252 8.272976 -0.3467 7.436115 -0.3467C7.208966 -0.3467 7.089415 -0.3467 7.089415 -0.131507C7.089415 0 7.197011 0 7.268742 0C7.47198 0 7.711083 -0.02391 7.914321 -0.02391H9.325031C9.528269 -0.02391 9.779328 0 9.982565 0C10.078207 0 10.209714 0 10.209714 -0.227148C10.209714 -0.3467 10.102117 -0.3467 9.92279 -0.3467C9.193524 -0.3467 9.193524 -0.442341 9.193524 -0.561893C9.193524 -0.573848 9.193524 -0.657534 9.217435 -0.753176L10.855293 -7.292653Z'/>
<path id='g1-85' d='M6.049315 -2.749689C5.630884 -1.075965 4.244085 -0.095641 3.120299 -0.095641C2.259527 -0.095641 1.673724 -0.669489 1.673724 -1.661768C1.673724 -1.709589 1.673724 -2.068244 1.80523 -2.594271L2.976837 -7.292653C3.084433 -7.699128 3.108344 -7.81868 3.957161 -7.81868C4.172354 -7.81868 4.291905 -7.81868 4.291905 -8.033873C4.291905 -8.16538 4.184309 -8.16538 4.112578 -8.16538C3.897385 -8.16538 3.646326 -8.141469 3.419178 -8.141469H2.008468C1.78132 -8.141469 1.530262 -8.16538 1.303113 -8.16538C1.219427 -8.16538 1.075965 -8.16538 1.075965 -7.938232C1.075965 -7.81868 1.159651 -7.81868 1.3868 -7.81868C2.10411 -7.81868 2.10411 -7.723039 2.10411 -7.591532C2.10411 -7.519801 2.020423 -7.173101 1.960648 -6.969863L0.920548 -2.785554C0.884682 -2.654047 0.812951 -2.331258 0.812951 -2.008468C0.812951 -0.6934 1.75741 0.251059 3.060523 0.251059C4.267995 0.251059 5.606974 -0.705355 6.216687 -2.223661C6.300374 -2.426899 6.40797 -2.84533 6.479701 -3.16812C6.599253 -3.598506 6.850311 -4.65056 6.933998 -4.961395L7.388294 -6.75467C7.543711 -7.376339 7.639352 -7.770859 8.691407 -7.81868C8.787049 -7.830635 8.834869 -7.926276 8.834869 -8.033873C8.834869 -8.16538 8.727273 -8.16538 8.679452 -8.16538C8.51208 -8.16538 8.296887 -8.141469 8.129514 -8.141469H7.567621C6.826401 -8.141469 6.443836 -8.16538 6.43188 -8.16538C6.360149 -8.16538 6.216687 -8.16538 6.216687 -7.938232C6.216687 -7.81868 6.312329 -7.81868 6.396015 -7.81868C7.113325 -7.79477 7.161146 -7.519801 7.161146 -7.304608C7.161146 -7.197011 7.161146 -7.161146 7.113325 -6.993773L6.049315 -2.749689Z'/>
<path id='g1-88' d='M5.678705 -4.853798L4.554919 -7.47198C4.710336 -7.758904 5.068991 -7.806725 5.212453 -7.81868C5.284184 -7.81868 5.415691 -7.830635 5.415691 -8.033873C5.415691 -8.16538 5.308095 -8.16538 5.236364 -8.16538C5.033126 -8.16538 4.794022 -8.141469 4.590785 -8.141469H3.897385C3.16812 -8.141469 2.642092 -8.16538 2.630137 -8.16538C2.534496 -8.16538 2.414944 -8.16538 2.414944 -7.938232C2.414944 -7.81868 2.52254 -7.81868 2.677958 -7.81868C3.371357 -7.81868 3.419178 -7.699128 3.53873 -7.412204L4.961395 -4.088667L2.367123 -1.315068C1.936737 -0.848817 1.422665 -0.394521 0.537983 -0.3467C0.394521 -0.334745 0.298879 -0.334745 0.298879 -0.119552C0.298879 -0.083686 0.310834 0 0.442341 0C0.609714 0 0.789041 -0.02391 0.956413 -0.02391H1.518306C1.900872 -0.02391 2.319303 0 2.689913 0C2.773599 0 2.917061 0 2.917061 -0.215193C2.917061 -0.334745 2.833375 -0.3467 2.761644 -0.3467C2.52254 -0.37061 2.367123 -0.502117 2.367123 -0.6934C2.367123 -0.896638 2.510585 -1.0401 2.857285 -1.398755L3.921295 -2.558406C4.184309 -2.833375 4.817933 -3.526775 5.080946 -3.789788L6.336239 -0.848817C6.348194 -0.824907 6.396015 -0.705355 6.396015 -0.6934C6.396015 -0.585803 6.133001 -0.37061 5.750436 -0.3467C5.678705 -0.3467 5.547198 -0.334745 5.547198 -0.119552C5.547198 0 5.66675 0 5.726526 0C5.929763 0 6.168867 -0.02391 6.372105 -0.02391H7.687173C7.902366 -0.02391 8.129514 0 8.332752 0C8.416438 0 8.547945 0 8.547945 -0.227148C8.547945 -0.3467 8.428394 -0.3467 8.320797 -0.3467C7.603487 -0.358655 7.579577 -0.418431 7.376339 -0.860772L5.798257 -4.566874L7.316563 -6.192777C7.436115 -6.312329 7.711083 -6.611208 7.81868 -6.73076C8.332752 -7.268742 8.810959 -7.758904 9.779328 -7.81868C9.898879 -7.830635 10.018431 -7.830635 10.018431 -8.033873C10.018431 -8.16538 9.910834 -8.16538 9.863014 -8.16538C9.695641 -8.16538 9.516314 -8.141469 9.348941 -8.141469H8.799004C8.416438 -8.141469 7.998007 -8.16538 7.627397 -8.16538C7.543711 -8.16538 7.400249 -8.16538 7.400249 -7.950187C7.400249 -7.830635 7.483935 -7.81868 7.555666 -7.81868C7.746949 -7.79477 7.950187 -7.699128 7.950187 -7.47198L7.938232 -7.44807C7.926276 -7.364384 7.902366 -7.244832 7.770859 -7.10137L5.678705 -4.853798Z'/>
<path id='g2-50' d='M2.247572 -1.625903C2.375093 -1.745455 2.709838 -2.008468 2.83736 -2.12005C3.331507 -2.574346 3.801743 -3.012702 3.801743 -3.737983C3.801743 -4.686426 3.004732 -5.300125 2.008468 -5.300125C1.052055 -5.300125 0.422416 -4.574844 0.422416 -3.865504C0.422416 -3.474969 0.73325 -3.419178 0.844832 -3.419178C1.012204 -3.419178 1.259278 -3.53873 1.259278 -3.841594C1.259278 -4.25604 0.860772 -4.25604 0.765131 -4.25604C0.996264 -4.837858 1.530262 -5.037111 1.920797 -5.037111C2.662017 -5.037111 3.044583 -4.407472 3.044583 -3.737983C3.044583 -2.909091 2.462765 -2.303362 1.522291 -1.338979L0.518057 -0.302864C0.422416 -0.215193 0.422416 -0.199253 0.422416 0H3.57061L3.801743 -1.42665H3.55467C3.53076 -1.267248 3.466999 -0.868742 3.371357 -0.71731C3.323537 -0.653549 2.717808 -0.653549 2.590286 -0.653549H1.171606L2.247572 -1.625903Z'/>
</defs>
<g id='page1'>
<use x='17.292255' y='40.982972' xlink:href='#g1-77'/>
<use x='29.865863' y='40.982972' xlink:href='#g1-85'/>
<use x='39.064913' y='40.982972' xlink:href='#g1-88'/>
<use x='48.780141' y='42.776235' xlink:href='#g2-50'/>
<use x='53.014323' y='42.776235' xlink:href='#g0-100'/>
</g>
</svg>