{
    "__type__": "Deck",
    "children": [],
    "crowdanki_uuid": "6b98db26-fe79-11e9-9d4c-f0def1e4c412",
    "deck_config_uuid": "6b98e288-fe79-11e9-9d4c-f0def1e4c412",
    "deck_configurations": [
        {
            "__type__": "DeckConfig",
            "autoplay": true,
            "crowdanki_uuid": "6b98e288-fe79-11e9-9d4c-f0def1e4c412",
            "dyn": false,
            "lapse": {
                "delays": [
                    10
                ],
                "leechAction": 0,
                "leechFails": 8,
                "minInt": 1,
                "mult": 0
            },
            "maxTaken": 60,
            "name": "Default",
            "new": {
                "bury": false,
                "delays": [
                    1,
                    10
                ],
                "initialFactor": 2500,
                "ints": [
                    1,
                    4,
                    7
                ],
                "order": 1,
                "perDay": 20,
                "separate": true
            },
            "replayq": true,
            "rev": {
                "bury": false,
                "ease4": 1.3,
                "fuzz": 0.05,
                "hardFactor": 1.2,
                "ivlFct": 1,
                "maxIvl": 36500,
                "minSpace": 1,
                "perDay": 200
            },
            "timer": 0
        }
    ],
    "desc": "",
    "dyn": 0,
    "extendNew": 10,
    "extendRev": 50,
    "media_files": [
        "latex-24a94a1792d8c9c94c5819fec9b1e7b4856cef32.png",
        "latex-6ad862f00711cdabb01875638cc6501f33c5bfa0.png",
        "latex-de357a507891d761f1bfede8e351fa1943333e5f.png",
        "latex-dfa8f1d104bb028611c9ac42a638781bd73f1586.png"
    ],
    "name": "Rechnerstrukturen",
    "note_models": [
        {
            "__type__": "NoteModel",
            "crowdanki_uuid": "2721e08e-3d00-11ea-b45d-1901c727e4f1",
            "css": ".card {\n font-family: arial;\n font-size: 20px;\n text-align: center;\n color: black;\n background-color: white;\n}\n",
            "flds": [
                {
                    "font": "Arimo",
                    "media": [],
                    "name": "Front",
                    "ord": 0,
                    "rtl": false,
                    "size": 20,
                    "sticky": false
                },
                {
                    "font": "Arimo",
                    "media": [],
                    "name": "Back",
                    "ord": 1,
                    "rtl": false,
                    "size": 20,
                    "sticky": false
                }
            ],
            "latexPost": "\\end{document}",
            "latexPre": "\\documentclass[12pt]{article}\n\\special{papersize=3in,5in}\n\\usepackage[utf8]{inputenc}\n\\pagestyle{empty}\n\\setlength{\\parindent}{0in}\n\n\\usepackage[T1]{fontenc}\n\\usepackage{listing}\n\\usepackage[a4paper]{geometry}\n\\usepackage[ngerman]{babel}\n\\usepackage{amssymb} %Zeugs für Darstellung von Mathesymbolen (Bsp. N der nat. Zahlen)\n\\usepackage{ntheorem}\n\\usepackage{fancyhdr} %header + footer \n\\usepackage{lastpage} %Anzeige der Gesamtseitenzahl\n\\usepackage{mathtools} %Zeugs für Mathe-Formeln\n\\usepackage{enumitem} \n\\usepackage{commath}\n\\usepackage{stmaryrd} %Klammern\n\\usepackage[nameinlink]{cleveref}\n\\usepackage[]{tikzsymbols} \n\\usepackage{tikz}\n\\usepackage{suffix}\n\\usepackage{listings}\n\\usepackage{gauss}\n\n\\usepackage{etoolbox}\n\\makeatletter\n\\patchcmd\\g@matrix\n {\\vbox\\bgroup}\n {\\vbox\\bgroup\\normalbaselines}% restore the standard baselineskip\n {}{}\n\\makeatother\n\n\\newcommand{\\BAR}{%\n  \\hspace{-\\arraycolsep}%\n  \\strut\\vrule % the `\\vrule` is as high and deep as a strut\n  \\hspace{-\\arraycolsep}%\n}\n\n\\begin{document}\n",
            "latexsvg": true,
            "name": "Basic",
            "req": [
                [
                    0,
                    "all",
                    [
                        0
                    ]
                ]
            ],
            "sortf": 0,
            "tags": [
                "repräsentationVonTexten"
            ],
            "tmpls": [
                {
                    "afmt": "{{FrontSide}}\n\n<hr id=answer>\n\n{{Back}}",
                    "bafmt": "",
                    "bqfmt": "",
                    "did": null,
                    "name": "Card 1",
                    "ord": 0,
                    "qfmt": "{{Front}}"
                }
            ],
            "type": 0,
            "vers": []
        },
        {
            "__type__": "NoteModel",
            "crowdanki_uuid": "6b98ff5c-fe79-11e9-9d4c-f0def1e4c412",
            "css": ".card {\n font-family: arial;\n font-size: 20px;\n text-align: center;\n color: black;\n background-color: white;\n}\n",
            "flds": [
                {
                    "font": "Liberation Sans",
                    "media": [],
                    "name": "Front",
                    "ord": 0,
                    "rtl": false,
                    "size": 20,
                    "sticky": true
                },
                {
                    "font": "Liberation Sans",
                    "media": [],
                    "name": "Back",
                    "ord": 1,
                    "rtl": false,
                    "size": 20,
                    "sticky": true
                }
            ],
            "latexPost": "\\end{document}",
            "latexPre": "\\documentclass[12pt]{article}\n\\special{papersize=3in,5in}\n\n\\usepackage[T1]{fontenc}\n\\usepackage{listing}\n\\usepackage[a4paper]{geometry}\n\\usepackage[ngerman]{babel}\n\\usepackage{amssymb} %Zeugs für Darstellung von Mathesymbolen (Bsp. N der nat. Zahlen)\n\\usepackage{ntheorem}\n\\usepackage{fancyhdr} %header + footer \n\\usepackage{lastpage} %Anzeige der Gesamtseitenzahl\n\\usepackage{mathtools} %Zeugs für Mathe-Formeln\n\\usepackage{enumitem} \n\\usepackage{commath}\n\\usepackage{stmaryrd} %Klammern\n\\usepackage[nameinlink]{cleveref}\n\\usepackage[]{tikzsymbols} \n\\usepackage{tikz}\n\\usepackage{suffix}\n\\usepackage{listings}\n\n\n\\pagestyle{empty}\n\\setlength{\\parindent}{0in}\n\n\n\n\\begin{document}\n",
            "name": "Basic-d3c6f",
            "req": [
                [
                    0,
                    "all",
                    [
                        0
                    ]
                ]
            ],
            "sortf": 0,
            "tags": [
                "MIPS-Befehle"
            ],
            "tmpls": [
                {
                    "afmt": "{{FrontSide}}\n\n<hr id=answer>\n\n{{Back}}",
                    "bafmt": "",
                    "bqfmt": "",
                    "did": null,
                    "name": "Card 1",
                    "ord": 0,
                    "qfmt": "{{Front}}"
                }
            ],
            "type": 0,
            "vers": []
        }
    ],
    "notes": [
        {
            "__type__": "Note",
            "data": "",
            "fields": [
                "MIPS-Befehl:&nbsp;<b>sra</b>",
                "<i>shift right arithmetic</i><div>Beispiel: <b>sra $2, $3, 10</b></div><div><b><br></b></div><div> 10-facher Bitshift nach rechts. Links wird mit dem ersten Bit aufgefüllt. (d.h. 0, falls das erste Bit 0 war, 1, falls das erste Bit 1 war.). Rechts werden Bits verworfen.</div>"
            ],
            "flags": 0,
            "guid": "j!k-c|S},s",
            "note_model_uuid": "6b98ff5c-fe79-11e9-9d4c-f0def1e4c412",
            "tags": [
                "MIPS-Befehle"
            ]
        },
        {
            "__type__": "Note",
            "data": "",
            "fields": [
                "MIPS-Befehl: <b>div</b>",
                "<div>Beispiel: <b>div $4, $5</b></div><div><br></div><div>Führt eine ganzzahlige Division von Register 4 und Register 5 aus. Das Register <b>Lo</b>&nbsp;enthält anschließend das Ergebnis, das Register <b>Hi</b>&nbsp;den Rest.<br></div>"
            ],
            "flags": 0,
            "guid": "jM@L_Lx3,m",
            "note_model_uuid": "6b98ff5c-fe79-11e9-9d4c-f0def1e4c412",
            "tags": [
                "MIPS-Befehle"
            ]
        },
        {
            "__type__": "Note",
            "data": "",
            "fields": [
                "Welche Register gibt es und welche Aufgaben erfüllen diese?",
                "[latex]<div>\\begin{tabular}{l|c|l}<br>Nummer &amp; Name &amp; Aufgabe \\\\ \\hline<br>0 &amp; \\$zero &amp; ist ausschließlich mit \"`0'en\"' belegt \\\\<br>1 &amp; \\$at &amp; reserviert für den Assembler \\\\<br>2-3 &amp; \\$v0 - \\$v1 &amp; Rückgabe-Register für Funktionen \\\\<br>4-7 &amp; \\$a0 - \\$a3 &amp; Erste 4 Parameter für Funktionen \\\\<br>8-15 und 24-25 &amp; \\$t0 - \\$t9 &amp; Temporäre Register (Caller-Save) \\\\<br>16-23 &amp; \\$s0 - \\$s7 &amp; Temporäre Register (Callee-Save) \\\\<br>26-27 &amp; \\$k0 - \\$k1 &amp; reserviert für Betriebssystem \\\\<br>28 &amp; \\$gp &amp; Global Pointer (.data Bereich) \\\\<br>29 &amp; \\$sp &amp; Stack Pointer (oberster Stack-Bereich) \\\\<br>30 &amp; \\$fp &amp; Frame Pointer (Basis des Stackframes) \\\\<br>31 &amp; \\$ra &amp; Rücksprungadresse (Funktionen) \\\\<br>\\end{tabular}<br></div><div>[/latex]<br></div>"
            ],
            "flags": 0,
            "guid": "kKkka2$l[V",
            "note_model_uuid": "6b98ff5c-fe79-11e9-9d4c-f0def1e4c412",
            "tags": [
                "mips"
            ]
        },
        {
            "__type__": "Note",
            "data": "",
            "fields": [
                "Repräsentation von Texten in Binärcode",
                "Jedes Zeichen wird anhand einer Tabelle in Binärcode umgewandelt. Diese Zeichen beinhalten neben Buchstaben und Zahlen auch Satzzeichen, Leerzeichen und Zeilenumbrüche.<div>Bekannte Codierungsformen sind ASCII [7-Bit], ISO 8859-1 [8-Bit] und die Unicode-Standards (z.B. UTF-8, UTF-16 etc.)</div>"
            ],
            "flags": 0,
            "guid": "l88|(%T~%>",
            "note_model_uuid": "2721e08e-3d00-11ea-b45d-1901c727e4f1",
            "tags": [
                "repräsentationVonTexten"
            ]
        },
        {
            "__type__": "Note",
            "data": "",
            "fields": [
                "MIPS-Befehl: <b>subu</b>",
                "<i>subtract</i><div>Beispiel: <b>subu $3, $4, $5</b></div><div><br></div><div>Im Beispiel: <b>Reg[3]:=Reg[4]-Reg[5]</b></div><div>Erkennt <b>keine </b>Überläufe (Overflow)</div>"
            ],
            "flags": 0,
            "guid": "l=oV.`2)%!",
            "note_model_uuid": "6b98ff5c-fe79-11e9-9d4c-f0def1e4c412",
            "tags": [
                "MIPS-Befehle"
            ]
        },
        {
            "__type__": "Note",
            "data": "",
            "fields": [
                "MIPS-Befehl: <b>mult</b>",
                "<div>Beispiel: <b>mult $4, $5</b></div><div><br></div><div>Multipliziert Register 4 und Register 5 und schreibt den höherwertigen Teil in <b>Hi</b>&nbsp;und den Rest in <b>Lo</b>.</div>"
            ],
            "flags": 0,
            "guid": "lY1/Qt-h}i",
            "note_model_uuid": "6b98ff5c-fe79-11e9-9d4c-f0def1e4c412",
            "tags": [
                "MIPS-Befehle"
            ]
        },
        {
            "__type__": "Note",
            "data": "",
            "fields": [
                "MIPS-Befehl: <b>srl</b>",
                "Beispiel: <b>srl $4, $3, 10</b><div><br></div><div>Bitshift des Inhalts von (hier) Register 3 nach rechts um (hier) 10 Stellen. Links wird mit Nullen aufgefüllt und rechts werden Bits verworfen.</div>"
            ],
            "flags": 0,
            "guid": "l}GrIERp$Y",
            "note_model_uuid": "6b98ff5c-fe79-11e9-9d4c-f0def1e4c412",
            "tags": [
                "MIPS-Befehle"
            ]
        },
        {
            "__type__": "Note",
            "data": "",
            "fields": [
                "MIPS-Befehl: <b>sll</b>",
                "Beispiel: <b>sll $4, $3, 10</b><div><br></div><div><i>Shift Left Logical</i></div><div>Bitshift nach links von dem Inhalt von (hier) Register $3 um hier 10 Stellen. Rechts wird mit Nullen aufgefüllt und links werden Bits verworfen.</div>"
            ],
            "flags": 0,
            "guid": "m+,7dMF{<Y",
            "note_model_uuid": "6b98ff5c-fe79-11e9-9d4c-f0def1e4c412",
            "tags": [
                "MIPS-Befehle"
            ]
        },
        {
            "__type__": "Note",
            "data": "",
            "fields": [
                "MIPS-Befehl: <b>mul</b>",
                "<div>Beispiel: <b>mul $3, $4, $5</b></div><div><br></div><div>Multipliziert Register 4 und Register 5 und schreibt den höherwertigen Teil in <b>Hi</b>&nbsp;und den Rest in <b>Lo</b>. Anschließend wird <b>Lo</b>&nbsp;in Register 3 geladen.</div><div><br></div><div>Es handelt sich um einen Pseudo-Befehl</div>"
            ],
            "flags": 0,
            "guid": "mOO4L4Zz&P",
            "note_model_uuid": "6b98ff5c-fe79-11e9-9d4c-f0def1e4c412",
            "tags": [
                "MIPS-Befehle"
            ]
        },
        {
            "__type__": "Note",
            "data": "",
            "fields": [
                "MIPS-Befehl: <b>mflo</b>",
                "<div>Beispiel: <b>mflo $3</b></div><div><br></div><div>Kopiert den Inhalt des Registers <b>Lo</b>&nbsp;in Register 3.</div>"
            ],
            "flags": 0,
            "guid": "nEKz^+`J=O",
            "note_model_uuid": "6b98ff5c-fe79-11e9-9d4c-f0def1e4c412",
            "tags": [
                "MIPS-Befehle"
            ]
        },
        {
            "__type__": "Note",
            "data": "",
            "fields": [
                "Welche Befehlsformate hat MIPS?",
                "[latex]R-Format für Register-Operationen: \\\\<br>Op(6) - rs(5) - rt(5) - rd(5) - shamnt(5) - funct(6) \\\\<br>\\\\<br>I-Format für Immediate-Operanden:\\\\<br>Op(6) - rs(5) - rt(5) I-Konstante(16) \\\\<br>\\\\<br>J-Format für Jump-Befehle: \\\\<br>Op(6) - Sprungziel(26) \\\\<br><br>op = Operationscode \\\\<br>rs und rt = Quellregister \\\\<br>rd = Zielregister \\\\<br>shamnt = \\textit{shift-amount} \\\\<br>funct = kodiert Befehlsvariante \\\\<br>I-Konstante = Konstante, mit der gearbeitet wird \\\\<br>Sprungziel = direkter Ort, an den gesprungen werden soll \\\\[/latex]"
            ],
            "flags": 0,
            "guid": "nYH,~roc6z",
            "note_model_uuid": "6b98ff5c-fe79-11e9-9d4c-f0def1e4c412",
            "tags": [
                "mips"
            ]
        },
        {
            "__type__": "Note",
            "data": "",
            "fields": [
                "MIPS-Befehl: <b>addi</b>",
                "<i>add immediate<br></i><div>Beispiel: <b>addi $3, $4, 10</b></div><div><b><br></b></div><div>Addiert im Beispiel den Inhalt von Register 4 und die Konstante 10 und schreibt das Ergebnis in Register 3.</div><div><br></div><div>Erkennt Überläufe (Overflow) und löst bei Auftreten einen Interrupt aus.</div>"
            ],
            "flags": 0,
            "guid": "oa-{cv/RrD",
            "note_model_uuid": "6b98ff5c-fe79-11e9-9d4c-f0def1e4c412",
            "tags": [
                "MIPS-Befehle"
            ]
        },
        {
            "__type__": "Note",
            "data": "",
            "fields": [
                "Aufbau eines Float (IEEE-Standard)",
                "[latex]Vorzeichenbit $s$ = 0 (positiv) und 1 (negativ) \\\\<div>8-Bit Exponent in Bias 127 \\\\</div><div>23-Bit Mantisse (normalisiert). Die implizite 1 wird nicht gespeichert[/latex]</div>"
            ],
            "flags": 0,
            "guid": "qq,2H|sVo^",
            "note_model_uuid": "6b98ff5c-fe79-11e9-9d4c-f0def1e4c412",
            "tags": [
                "RepräsentationVonDaten"
            ]
        },
        {
            "__type__": "Note",
            "data": "",
            "fields": [
                "MIPS-Befehl: <b>xor</b>",
                "<div>Beispiel: <b>xor $2, $3, $4</b></div><div><b><br></b></div><div>Die xor-Operation wird bitweise auf Register 3 und Register 4 angewendet. Das Ergebnis wird in Register 2 gespeichert.</div>"
            ],
            "flags": 0,
            "guid": "s(XcWlh4`4",
            "note_model_uuid": "6b98ff5c-fe79-11e9-9d4c-f0def1e4c412",
            "tags": [
                "MIPS-Befehle"
            ]
        },
        {
            "__type__": "Note",
            "data": "",
            "fields": [
                "Algorithmus zur Umrechnung von Basis 10 in Basis b",
                "[latex]<div>\\begin{align*}</div><div>l&amp;:=-1 \\text{  | $l$ ist die Repräsentationslänge}\\\\</div><div>\\text{So lange }&amp;n&gt;0\\text{ gilt}\\\\</div><div>l&amp;:=l+1\\\\</div><div>n_l&amp;:=n-b*\\lfloor n/b\\rfloor\\\\</div><div>n&amp;:=\\lfloor n/b \\rfloor\\\\</div><div>\\end{align*}<br><div>[/latex]<br></div></div>"
            ],
            "flags": 0,
            "guid": "s7L2?v2Z;k",
            "note_model_uuid": "6b98ff5c-fe79-11e9-9d4c-f0def1e4c412",
            "tags": [
                "Repräsentation",
                "Zahlen",
                "natürlicher"
            ]
        },
        {
            "__type__": "Note",
            "data": "",
            "fields": [
                "MIPS-Befehl: <b>andi</b>",
                "Beispiel: <b>andi $4, $3, 100</b><div><br></div><div>Bitweise Verundung mit einer Konstanten</div>"
            ],
            "flags": 0,
            "guid": "s;8+K@yomk",
            "note_model_uuid": "6b98ff5c-fe79-11e9-9d4c-f0def1e4c412",
            "tags": [
                "MIPS-Befehle"
            ]
        },
        {
            "__type__": "Note",
            "data": "",
            "fields": [
                "MIPS-Befehl: <b>sltu</b>",
                "<div><i style=\"\">Set on less than unsigned</i><br></div><div><i style=\"\"><br></i></div><div>Beispiel:&nbsp;<b>sltu $2, $3, $4</b></div><div><br></div><div>Setzt Register 2 auf 1, wenn der Inhalt von Register 3 kleiner ist, als der Inhalt von Register 4. Sonst wird Register 2 auf 0 gesetzt. Register 3 und Register 4 werden als Betragszahlen behandelt</div>"
            ],
            "flags": 0,
            "guid": "t&*Bq<YFIz",
            "note_model_uuid": "6b98ff5c-fe79-11e9-9d4c-f0def1e4c412",
            "tags": [
                "MIPS-Befehle"
            ]
        },
        {
            "__type__": "Note",
            "data": "",
            "fields": [
                "MIPS-Befehl: <b>syscall</b>",
                "<div>Generiert einen Software-Interrupt. Der Servicecode muss zuvor in Register <b>$v0 </b>geladen werden. Falls nötig, werden Argumente in <b>$a0, $a1, $a2</b>&nbsp;und <b>$f12</b>&nbsp;übergeben.</div>"
            ],
            "flags": 0,
            "guid": "t86[2y24rZ",
            "note_model_uuid": "6b98ff5c-fe79-11e9-9d4c-f0def1e4c412",
            "tags": [
                "MIPS-Befehle"
            ]
        },
        {
            "__type__": "Note",
            "data": "",
            "fields": [
                "MIPS-Befehl: <b>addu</b>",
                "Ähnlich wie <b>add</b>, jedoch wird ein Überlauf (Overflow) nicht erkannt"
            ],
            "flags": 0,
            "guid": "tB_Z1wr`eS",
            "note_model_uuid": "6b98ff5c-fe79-11e9-9d4c-f0def1e4c412",
            "tags": [
                "MIPS-Befehle"
            ]
        },
        {
            "__type__": "Note",
            "data": "",
            "fields": [
                "MIPS-Befehl: <b>mulou</b>",
                "<div>Beispiel: <b>mulou $3, $4, $5</b></div><div><br></div><div>Multipliziert Register 4 und Register 5 und schreibt den höherwertigen Teil in <b>Hi</b>&nbsp;und den Rest in <b>Lo</b>. Anschließend wird <b>Lo</b>&nbsp;in Register 3 geladen. Die Register 4 und 5 werden als unsigned integer gewertet. Ein Überlauf wird erkannt und resultiert in einem Interrupt.</div><div><br></div><div>Es handelt sich um einen Pseudo-Befehl</div>"
            ],
            "flags": 0,
            "guid": "tFk00_tJ/{",
            "note_model_uuid": "6b98ff5c-fe79-11e9-9d4c-f0def1e4c412",
            "tags": [
                "MIPS-Befehle"
            ]
        },
        {
            "__type__": "Note",
            "data": "",
            "fields": [
                "MIPS-Befehl: <b>add</b>",
                "Beispiel: add $2, $3, $4<div><br></div><div>Ergebnis der Addition des Inhalts von Register 3 und Register 4 wird in Register 2 gespeichert. Ein Überlauf (Overflow) wird erkannt und resultiert in einem Interrupt.</div>"
            ],
            "flags": 0,
            "guid": "uKmO<j3`s1",
            "note_model_uuid": "6b98ff5c-fe79-11e9-9d4c-f0def1e4c412",
            "tags": [
                "MIPS-Befehle"
            ]
        },
        {
            "__type__": "Note",
            "data": "",
            "fields": [
                "MIPS-Befehl: <b>mulo</b>",
                "<div>Beispiel: <b>mulo $3, $4, $5</b></div><div><br></div><div>Multipliziert Register 4 und Register 5 und schreibt den höherwertigen Teil in <b>Hi</b>&nbsp;und den Rest in <b>Lo</b>. Anschließend wird <b>Lo</b>&nbsp;in Register 3 geladen. Ähnlich wie <b>mul</b>,&nbsp;jedoch mit Überlauf-Schutz.&nbsp;</div><div><br></div><div>Es handelt sich um einen Pseudo-Befehl</div>"
            ],
            "flags": 0,
            "guid": "uT:<V]r`+n",
            "note_model_uuid": "6b98ff5c-fe79-11e9-9d4c-f0def1e4c412",
            "tags": [
                "MIPS-Befehle"
            ]
        },
        {
            "__type__": "Note",
            "data": "",
            "fields": [
                "MIPS-Befehl:&nbsp;<b>ble</b>",
                "<div>Beispiel:&nbsp;<b>ble $2, $3, label</b></div><div><br></div><div>Springt zum angegebenen Label, wenn der Inhalt von Register 2 kleiner oder gleich dem Inhalt von Register 3&nbsp;ist.</div>"
            ],
            "flags": 0,
            "guid": "v#dn}f@KC3",
            "note_model_uuid": "6b98ff5c-fe79-11e9-9d4c-f0def1e4c412",
            "tags": [
                "MIPS-Befehle"
            ]
        },
        {
            "__type__": "Note",
            "data": "",
            "fields": [
                "MIPS-Befehl: <b>divu</b>",
                "<div>Beispiel: <b>divu $4, $5</b></div><div><br></div><div>Führt eine ganzzahlige Division von Register 4 und Register 5 aus. Das Register <b>Lo</b>&nbsp;enthält anschließend das Ergebnis, das Register <b>Hi</b>&nbsp;den Rest. Ähnlich wie <b>div</b>, jedoch werden die Quellregister <i>unsigned</i>&nbsp;behandelt, also als Betragszahl interpretiert.<br></div>"
            ],
            "flags": 0,
            "guid": "viJK3Rz6Z]",
            "note_model_uuid": "6b98ff5c-fe79-11e9-9d4c-f0def1e4c412",
            "tags": [
                "MIPS-Befehle"
            ]
        },
        {
            "__type__": "Note",
            "data": "",
            "fields": [
                "MIPS-Befehl: <b>sgt</b>",
                "<div>Dieser Befehl existiert nicht. Stattdessen muss <b>slt</b>&nbsp;mit vertauschten Registern verwendet werden.</div>"
            ],
            "flags": 0,
            "guid": "vk#eR-8gR8",
            "note_model_uuid": "6b98ff5c-fe79-11e9-9d4c-f0def1e4c412",
            "tags": [
                "MIPS-Befehle"
            ]
        }
    ]
}